{
    "_id": "DHrzVqB8f1ed3zTk",
    "data": {
        "boosts": {
            "0": {
                "value": [
                    "cha",
                    "dex"
                ]
            },
            "1": {
                "value": [
                    "cha",
                    "con",
                    "dex",
                    "int",
                    "str",
                    "wis"
                ]
            }
        },
        "description": {
            "chat": "",
            "unidentified": "",
            "value": "<p>Although you've spent time in greasepaint and colorful clothing to amuse crowds, your skills with buffoonery and physical comedy are exceptional whether or not you're in costume. In the employ of Mistress Dusklight's Celestial Menagerie, you spent too many routines distracting an audience from an ill-timed accident or evidence of abused animals or performers. You've had enough of that, and the Celestial Menagerie isn't your home any longer.</p>\n<p>Choose two ability boosts. One must be to <strong>Dexterity</strong> or <strong>Charisma</strong>, and one is a free ability boost.</p>\n<p>You're trained in the Performance skill and the Clown Lore skill. You gain the @Compendium[pf2e.feats-srd.Virtuosic Performer]{Virtuosic Performer (Comedy)} skill feat.</p>"
        },
        "items": {
            "du76r": {
                "id": "lFwfUvH2708rl6i3",
                "img": "systems/pf2e/icons/features/feats/feats.jpg",
                "level": "1",
                "name": "Virtuosic Performer",
                "pack": "pf2e.feats-srd"
            }
        },
        "rarity": {
            "value": "common"
        },
        "rules": [],
        "source": {
            "value": ""
        },
        "trainedLore": "Clown Lore",
        "trainedSkills": {
            "value": [
                "prf"
            ]
        },
        "traits": {
            "custom": "",
            "rarity": {
                "value": "common"
            },
            "value": []
        }
    },
    "effects": [],
    "flags": {},
    "img": "icons/svg/mystery-man.svg",
    "name": "Clown",
    "permission": {
        "default": 0
    },
    "type": "background"
}
