{
    "_id": "HDquvQywAZimmcFF",
    "data": {
        "boosts": {
            "0": {
                "value": [
                    "con",
                    "int"
                ]
            },
            "1": {
                "value": [
                    "cha",
                    "con",
                    "dex",
                    "int",
                    "str",
                    "wis"
                ]
            }
        },
        "description": {
            "chat": "",
            "unidentified": "",
            "value": "<p>The fighting around the Lake Encarthan region has forced many of the people residing there to flee from the violence. Although your home is gone, you have managed to survive and are making your way south in search of a better life. When play begins, you are riding along in a caravan taking you to what might be either a new home in Andoran or simply another waypoint in your journey.</p>\n<p>Choose two ability boosts. One must be to <strong>Constitution</strong> or <strong>Intelligence</strong>, and one is a free ability boost.</p>\n<p>You're trained in the Survival skill and the Hunting Lore skill. You gain the @Compendium[pf2e.feats-srd.Forager]{Forager} skill feat.</p>"
        },
        "items": {
            "r7cai": {
                "id": "8qebBeOJsyRIchcu",
                "img": "systems/pf2e/icons/features/feats/feats.jpg",
                "level": "1",
                "name": "Forager",
                "pack": "pf2e.feats-srd"
            }
        },
        "rarity": {
            "value": "common"
        },
        "rules": [],
        "source": {
            "value": ""
        },
        "trainedLore": "Hunting Lore",
        "trainedSkills": {
            "value": [
                "sur"
            ]
        },
        "traits": {
            "custom": "",
            "rarity": {
                "value": "common"
            },
            "value": []
        }
    },
    "effects": [],
    "flags": {},
    "img": "icons/svg/mystery-man.svg",
    "name": "Refugee (Fall of Plaguestone)",
    "permission": {
        "default": 0
    },
    "type": "background"
}
