{
    "_id": "2req0jGaxz8hScdB",
    "data": {
        "description": {
            "chat": "",
            "unidentified": "",
            "value": "<p>This item is the starter kit for an adventurer, containing the essential items for exploration and survival. The Bulk value is for the entire pack together, but see the descriptions of individual items as necessary.</p>"
        },
        "equippedBulk": {
            "value": ""
        },
        "items": {
            "mca3x": {
                "id": "3lgwjrFEsQVKzhh7",
                "img": "systems/pf2e/icons/equipment/adventuring-gear/backpack.jpg",
                "isContainer": true,
                "items": {
                    "02xhi": {
                        "id": "fyYnQf1NAx9fWFaS",
                        "img": "systems/pf2e/icons/equipment/adventuring-gear/rope.jpg",
                        "isContainer": false,
                        "items": {},
                        "name": "Rope",
                        "pack": "pf2e.equipment-srd",
                        "quantity": 1
                    },
                    "30xet": {
                        "id": "VnPh324pKwd2ZB66",
                        "img": "systems/pf2e/icons/equipment/adventuring-gear/waterskin.jpg",
                        "isContainer": false,
                        "items": {},
                        "name": "Waterskin",
                        "pack": "pf2e.equipment-srd",
                        "quantity": 1
                    },
                    "afbn4": {
                        "id": "xShIDyydOMkGvGNb",
                        "img": "systems/pf2e/icons/equipment/adventuring-gear/chalk.jpg",
                        "isContainer": false,
                        "items": {},
                        "name": "Chalk",
                        "pack": "pf2e.equipment-srd",
                        "quantity": 10
                    },
                    "fabyb": {
                        "id": "UlIxxLm71UdRgCFE",
                        "img": "systems/pf2e/icons/equipment/adventuring-gear/flint-and-steel.jpg",
                        "isContainer": false,
                        "items": {},
                        "name": "Flint and Steel",
                        "pack": "pf2e.equipment-srd",
                        "quantity": 1
                    },
                    "jtagt": {
                        "id": "L9ZV076913otGtiB",
                        "img": "systems/pf2e/icons/equipment/adventuring-gear/rations.jpg",
                        "isContainer": false,
                        "items": {},
                        "name": "Rations",
                        "pack": "pf2e.equipment-srd",
                        "quantity": 14
                    },
                    "lems2": {
                        "id": "8Jdw4yAzWYylGePS",
                        "img": "systems/pf2e/icons/equipment/adventuring-gear/torch.jpg",
                        "isContainer": false,
                        "items": {},
                        "name": "Torch",
                        "pack": "pf2e.equipment-srd",
                        "quantity": 5
                    },
                    "lpl11": {
                        "id": "fagzYdmfYyMQ6J77",
                        "img": "systems/pf2e/icons/equipment/adventuring-gear/bedroll.jpg",
                        "isContainer": false,
                        "items": {},
                        "name": "Bedroll",
                        "pack": "pf2e.equipment-srd",
                        "quantity": 1
                    },
                    "z9tim": {
                        "id": "81aHsD27HFGnq1Nt",
                        "img": "systems/pf2e/icons/equipment/adventuring-gear/soap.jpg",
                        "isContainer": false,
                        "items": {},
                        "name": "Soap",
                        "pack": "pf2e.equipment-srd",
                        "quantity": 1
                    }
                },
                "name": "Backpack",
                "pack": "pf2e.equipment-srd",
                "quantity": 1
            }
        },
        "price": {
            "value": "15 sp"
        },
        "rarity": {
            "value": "common"
        },
        "rules": [],
        "source": {
            "value": ""
        },
        "traits": {
            "custom": "",
            "rarity": {
                "value": "common"
            },
            "value": []
        },
        "weight": {
            "value": "-"
        }
    },
    "effects": [],
    "flags": {},
    "img": "systems/pf2e/icons/equipment/adventuring-gear/adventurers-pack.jpg",
    "name": "Adventurer's Pack",
    "permission": {
        "default": 0
    },
    "type": "kit"
}
