{
    "_id": "o9IErbpmItz9NZT3",
    "data": {
        "MAP": {
            "value": ""
        },
        "ability": {
            "label": "Offensive Ability",
            "type": "String",
            "value": "str"
        },
        "baseItem": null,
        "bonus": {
            "label": "Item Bonus",
            "type": "String",
            "value": 4
        },
        "bonusDamage": {
            "value": 0
        },
        "brokenThreshold": {
            "value": 0
        },
        "bulkCapacity": {
            "value": ""
        },
        "collapsed": {
            "value": false
        },
        "containerId": {
            "value": ""
        },
        "damage": {
            "damageType": "slashing",
            "dice": 1,
            "die": "d12",
            "label": "damage",
            "type": "String",
            "value": ""
        },
        "description": {
            "chat": "",
            "label": "Description",
            "type": "String",
            "unidentified": "",
            "value": "<p>This potent weapon used by Treerazer is a +4 @Compendium[pf2e.equipment-srd.Corrosive (Greater)]{Corrosive (Greater)} major striking obsidian greataxe that grants a +4 item bonus to attack rolls, deals an extra 2d6 damage to plants, and has the properties of adamantine.</p>\n<hr />\n<p><strong>Activate</strong> <span style=\"font-family: 'Pathfinder2eActions'; font-size: 1.8em; display: inline;\">A</span> (divination, scrying)</p>\n<p><strong>Requirements</strong> You aren't wielding <em>Blackaxe</em> and you are its true owner.</p>\n<p><strong>Effect</strong> You sense the world around <em>Blackaxe</em> as though you were in its location and can use any of your innate spells through the link as if it were the source of the spell. If another creature is wielding Blackaxe, it must succeed at a DC 50 Will save or be slowed 2 until it relinquishes the weapon.</p>\n<hr />\n<p><strong>Activate</strong> <span style=\"font-family: 'Pathfinder2eActions'; font-size: 1.8em; display: inline;\">F</span> command (conjuration, teleportation)</p>\n<p><strong>Requirements</strong> You aren't wielding <em>Blackaxe</em> and you are its true owner.</p>\n<p><strong>Effect</strong> <em>Blackaxe</em> appears in your hands, teleporting instantly from its prior location.</p>\n<hr />\n<p><strong>Activate</strong> <span style=\"font-family: 'Pathfinder2eActions'; font-size: 1.8em; display: inline;\">A</span> command (death, healing, necromancy)</p>\n<p><strong>Frequency</strong> once per minute.</p>\n<p><strong>Effect</strong> Make a Strike against a living tree with <em>Blackaxe</em>. If it hits, the tree withers to ash and you heal 250 Hit Points and gain the benefit of @Compendium[pf2e.spells-srd.Restoration]{Restoration} (6th) and @Compendium[pf2e.spells-srd.Restore Senses]{Restore Senses}.</p>"
        },
        "equipped": {
            "value": false
        },
        "equippedBulk": {
            "value": ""
        },
        "group": {
            "label": "Weapon Group",
            "type": "String",
            "value": "axe"
        },
        "hands": {
            "label": "Hands",
            "type": "String",
            "value": ""
        },
        "hardness": {
            "value": 0
        },
        "hp": {
            "value": 0
        },
        "identification": {
            "status": "identified"
        },
        "identified": {
            "value": true
        },
        "invested": {
            "value": false
        },
        "level": {
            "label": "Item Level",
            "type": "Number",
            "value": 25
        },
        "maxHp": {
            "value": 0
        },
        "negateBulk": {
            "value": "0"
        },
        "potencyRune": {
            "value": "4"
        },
        "preciousMaterial": {
            "value": "adamantine"
        },
        "preciousMaterialGrade": {
            "value": "high"
        },
        "price": {
            "label": "Price",
            "type": "String",
            "value": ""
        },
        "property1": {
            "critDamage": "",
            "critDamageType": "",
            "critDice": null,
            "critDie": "",
            "criticalConditionType": "",
            "criticalConditionValue": null,
            "damageType": "",
            "dice": null,
            "die": "",
            "label": "Primary Property",
            "strikeConditionType": "",
            "strikeConditionValue": null,
            "type": "String",
            "value": ""
        },
        "propertyRune1": {
            "value": "greaterCorrosive"
        },
        "propertyRune2": {
            "value": ""
        },
        "propertyRune3": {
            "value": ""
        },
        "propertyRune4": {
            "value": ""
        },
        "quantity": {
            "label": "Quantity",
            "type": "Number",
            "value": 1
        },
        "range": {
            "label": "Weapon Range",
            "type": "String",
            "value": "melee"
        },
        "rarity": {
            "value": "common"
        },
        "reload": {
            "label": "Reload",
            "type": "String",
            "value": ""
        },
        "rules": [
            {
                "diceNumber": 2,
                "dieSize": "d6",
                "key": "PF2E.RuleElement.DamageDice",
                "label": "vs. plants",
                "predicate": {
                    "all": [
                        "target:plant"
                    ]
                },
                "selector": "damage"
            }
        ],
        "size": {
            "value": "med"
        },
        "source": {
            "label": "Source",
            "type": "String",
            "value": ""
        },
        "splashDamage": {
            "value": null
        },
        "stackGroup": {
            "value": ""
        },
        "strikingRune": {
            "value": "majorStriking"
        },
        "traits": {
            "custom": "",
            "label": "Weapon Traits",
            "rarity": {
                "value": "unique"
            },
            "type": "String",
            "value": [
                "artifact",
                "cursed",
                "evocation",
                "primal",
                "sweep"
            ]
        },
        "usage": {
            "value": "held-in-one-hand"
        },
        "weaponType": {
            "label": "Weapon Category",
            "type": "String",
            "value": "martial"
        },
        "weight": {
            "label": "Bulk",
            "type": "Number",
            "value": "2"
        }
    },
    "effects": [],
    "flags": {},
    "img": "systems/pf2e/icons/equipment/artifacts/blackaxe.jpg",
    "name": "Blackaxe",
    "permission": {
        "default": 0
    },
    "type": "weapon"
}
