{
    "_id": "RUEAV5LMUGFHcXcW",
    "data": {
        "armor": {
            "label": "AC Bonus",
            "type": "Number",
            "value": 4
        },
        "armorType": {
            "label": "Armor Category",
            "type": "String",
            "value": "medium"
        },
        "baseItem": null,
        "brokenThreshold": {
            "value": null
        },
        "bulkCapacity": {
            "value": ""
        },
        "check": {
            "label": "Check Penalty",
            "type": "String",
            "value": -2
        },
        "collapsed": {
            "value": false
        },
        "containerId": {
            "value": ""
        },
        "description": {
            "chat": "",
            "label": "Description",
            "type": "String",
            "unidentified": "",
            "value": "<p>This +1 resilient breastplate is made from shining bronze overlaid with reinforcing golden panels in the shape of lion's heads. Wearing this breastplate grants you a commanding aura. You gain a +2 item bonus to Diplomacy checks, but you take a -2 item penalty to Stealth checks to Hide and Sneak and Deception checks to Impersonate.</p>\n<p><strong>Activate</strong><span style=\"font-family: 'Pathfinder2eActions'; font-size: 1.8em; display: inline;\">A</span>Command</p>\n<p><strong>Frequency</strong> once per day</p>\n<p><strong>Effect</strong> You grant allies within 100 feet a +2 status bonus to saves against fear effects for 1 minute. When you activate this ability, each affected ally who's frightened reduces their frightened value by 1.</p>\n<p>@Compendium[pf2e.equipment-effects.Effect: Breastplate of Command]{Effect: Breastplate of Command}</p>\n<hr />\n<p>Automatically applied effects:</p>\n<ul>\n<li>+2 item bonus to Diplomacy checks</li>\n<li>-2 item penalty to Stealth checks to Hide and Sneak</li>\n<li>-2 item penalty to Deception checks to Impersonate</li>\n</ul>"
        },
        "dex": {
            "label": "Dex Modifier Cap",
            "type": "String",
            "value": 1
        },
        "equipped": {
            "label": "Equipped",
            "type": "Boolean",
            "value": false
        },
        "equippedBulk": {
            "value": "2"
        },
        "group": {
            "label": "Group",
            "type": "String",
            "value": "plate"
        },
        "hardness": {
            "value": null
        },
        "hp": {
            "value": null
        },
        "identification": {
            "status": "identified"
        },
        "identified": {
            "value": true
        },
        "invested": {
            "value": false
        },
        "level": {
            "label": "Item Level",
            "type": "Number",
            "value": 10
        },
        "maxHp": {
            "value": null
        },
        "negateBulk": {
            "value": "0"
        },
        "potency": {
            "label": "Armor Potency",
            "type": "String"
        },
        "potencyRune": {
            "value": "1"
        },
        "preciousMaterial": {
            "value": ""
        },
        "preciousMaterialGrade": {
            "value": ""
        },
        "price": {
            "label": "Price",
            "type": "String",
            "value": "1,000 gp"
        },
        "propertyRune1": {
            "value": ""
        },
        "propertyRune2": {
            "value": ""
        },
        "propertyRune3": {
            "value": ""
        },
        "propertyRune4": {
            "value": ""
        },
        "quantity": {
            "label": "Quantity",
            "type": "Number",
            "value": 1
        },
        "rarity": {
            "value": "common"
        },
        "resiliencyRune": {
            "value": "resilient"
        },
        "resilient": {
            "label": "Resilient",
            "type": "String"
        },
        "rules": [
            {
                "key": "PF2E.RuleElement.FlatModifier",
                "selector": "diplomacy",
                "type": "item",
                "value": 2
            },
            {
                "key": "PF2E.RuleElement.FlatModifier",
                "label": "Breastplate of Command (Hide, Sneak)",
                "predicate": {
                    "any": [
                        "action:hide",
                        "action:sneak"
                    ]
                },
                "selector": "stealth",
                "type": "item",
                "value": -2
            },
            {
                "key": "PF2E.RuleElement.FlatModifier",
                "label": "Breastplate of Command (Impersonate)",
                "predicate": {
                    "any": [
                        "action:impersonate"
                    ]
                },
                "selector": "deception",
                "type": "item",
                "value": -2
            },
            {
                "key": "PF2E.RuleElement.FlatModifier",
                "predicate": {
                    "not": [
                        "unburdened-iron"
                    ]
                },
                "roll-options": [
                    "all"
                ],
                "selector": "speed",
                "type": "untyped",
                "value": {
                    "brackets": [
                        {
                            "end": 15,
                            "value": -5
                        }
                    ],
                    "field": "actor|data.abilities.str.value"
                }
            }
        ],
        "size": {
            "value": "med"
        },
        "source": {
            "label": "Source",
            "type": "String",
            "value": ""
        },
        "speed": {
            "label": "Speed Penalty",
            "type": "String",
            "value": "-5 ft"
        },
        "stackGroup": {
            "value": ""
        },
        "strength": {
            "label": "Required Strength",
            "type": "String",
            "value": 16
        },
        "traits": {
            "custom": "",
            "label": "Traits",
            "rarity": {
                "value": "common"
            },
            "type": "String",
            "value": [
                "enchantment",
                "invested",
                "magical"
            ]
        },
        "usage": {
            "value": "wornarmor"
        },
        "weight": {
            "label": "Bulk",
            "type": "Number",
            "value": "3"
        }
    },
    "effects": [],
    "flags": {},
    "img": "systems/pf2e/icons/equipment/armor/specific-magic-armor/breastplate-of-command.jpg",
    "name": "Breastplate of Command",
    "permission": {
        "default": 0
    },
    "type": "armor"
}
