{
    "_id": "gB4kCTgR3b6SJw7n",
    "data": {
        "description": {
            "chat": "",
            "unidentified": "",
            "value": "<div><strong>Armor</strong> hide armor</div>\n<div><strong>Weapons</strong> dagger, 4 javelins</div>\n<div><strong>Gear</strong> adventurer's pack, crowbar, grappling hook</div>\n<div><strong>Options</strong> @Compendium[pf2e.equipment-srd.Steel Shield]{Steel Shield} (2 gp), your deity's favored weapon (see the deity entries on pages 437-441; use the Price listed in this chapter)</div>"
        },
        "equippedBulk": {
            "value": ""
        },
        "items": {
            "0lbx9": {
                "id": "rQWaJhI5Bko5x14Z",
                "img": "systems/pf2e/icons/equipment/weapons/dagger.png",
                "isContainer": false,
                "items": {},
                "name": "Dagger",
                "pack": "pf2e.equipment-srd",
                "quantity": 1
            },
            "3nef1": {
                "id": "6DCy7tEF1cxaIJMy",
                "img": "systems/pf2e/icons/equipment/adventuring-gear/grapling-hook.jpg",
                "isContainer": false,
                "items": {},
                "name": "Grappling Hook",
                "pack": "pf2e.equipment-srd",
                "quantity": 1
            },
            "lsmjq": {
                "id": "44F1mfJei4GY8f2X",
                "img": "systems/pf2e/icons/equipment/adventuring-gear/crowbar.jpg",
                "isContainer": false,
                "items": {},
                "name": "Crowbar",
                "pack": "pf2e.equipment-srd",
                "quantity": 1
            },
            "t1op7": {
                "id": "JNt7GmLCCVz5BiEI",
                "img": "systems/pf2e/icons/equipment/weapons/javelin.jpg",
                "isContainer": false,
                "items": {},
                "name": "Javelin",
                "pack": "pf2e.equipment-srd",
                "quantity": 4
            },
            "th08m": {
                "id": "AnwzlOs0njF9Jqnr",
                "img": "systems/pf2e/icons/equipment/armor/hide.jpg",
                "isContainer": false,
                "items": {},
                "name": "Hide",
                "pack": "pf2e.equipment-srd",
                "quantity": 1
            },
            "vuw9g": {
                "id": "2req0jGaxz8hScdB",
                "img": "systems/pf2e/icons/equipment/adventuring-gear/adventurers-pack.jpg",
                "isContainer": true,
                "items": {},
                "name": "Adventurer's Pack",
                "pack": "pf2e.equipment-srd",
                "quantity": 1
            }
        },
        "price": {
            "value": "4 gp, 7 sp"
        },
        "rarity": {
            "value": "common"
        },
        "rules": [],
        "source": {
            "value": ""
        },
        "traits": {
            "custom": "",
            "rarity": {
                "value": "common"
            },
            "value": [
                "champion"
            ]
        },
        "weight": {
            "value": "-"
        }
    },
    "effects": [],
    "flags": {},
    "img": "systems/pf2e/icons/equipment/adventuring-gear/classkit-champion.jpg",
    "name": "Class Kit (Champion)",
    "permission": {
        "default": 0
    },
    "type": "kit"
}
