{
    "_id": "Q8BscHUFiM1a86PO",
    "data": {
        "armor": {
            "label": "AC Bonus",
            "type": "Number",
            "value": 2
        },
        "armorType": {
            "label": "Armor Category",
            "type": "String",
            "value": "shield"
        },
        "baseItem": null,
        "brokenThreshold": {
            "value": 16
        },
        "bulkCapacity": {
            "value": ""
        },
        "check": {
            "label": "Check Penalty",
            "type": "String",
            "value": ""
        },
        "collapsed": {
            "value": false
        },
        "containerId": {
            "value": ""
        },
        "description": {
            "chat": "",
            "label": "Description",
            "type": "String",
            "unidentified": "",
            "value": "<p><span>A <em>dragonslayer's shield</em> is a steel shield covered with dragonhide from a certain type of dragon, which distinguishes each shield from the others. While raised, this steel shield (Hardness 8, HP 32, BT 16) grants its circumstance bonus to Reflex saves against area effects (as well as to AC, as normal).<br /></span></p>\n<p><span>While you hold the shield, it also grants you a +2 circumstance bonus to Will saves against a dragon's frightful presence ability. The shield has resistance 10 against the damage type corresponding to the type of dragon whose hide was used in its creation; this applies after reducing the damage for Hardness, so when you use Shield Block, the <em>dragonslayer's shield</em> takes 18 less damage from attacks of that damage type. You can use Shield Block against attacks that deal damage of that type.</span></p><h2>Dragon's Breath Potion</h2>\n<table style=\"user-select: text; width: 368px; color: #191813; font-family: Roboto, system, -apple-system, sans-serif; font-size: 13px; height: 134px;\" border=\"1\">\n<tbody style=\"box-sizing: border-box; user-select: text;\">\n<tr style=\"box-sizing: border-box; user-select: text; height: 17px;\">\n<td style=\"box-sizing: border-box; user-select: text; color: white; width: 116px; text-align: center; background-color: #522e2c; height: 17px;\"><strong style=\"box-sizing: border-box; user-select: text;\">Dragon Type</strong></td>\n<td style=\"box-sizing: border-box; user-select: text; color: white; width: 251px; text-align: center; background-color: #522e2c; height: 17px;\"><strong style=\"box-sizing: border-box; user-select: text;\">Breath Weapon (Save)</strong></td>\n</tr>\n<tr style=\"box-sizing: border-box; user-select: text; height: 17px;\">\n<td style=\"box-sizing: border-box; user-select: text; width: 116px; background-color: #f6f1e1; height: 17px; text-align: center;\">Black or copper<br style=\"box-sizing: border-box; user-select: text;\"><span id=\"ctl00_MainContent_DetailedOutput\" style=\"box-sizing: border-box; user-select: text; display: block;\"></span></td>\n<td style=\"box-sizing: border-box; user-select: text; width: 251px; background-color: #f6f1e1; height: 17px; text-align: center;\">30-foot line of acid (Reflex)</td>\n</tr>\n<tr style=\"box-sizing: border-box; user-select: text; height: 20px;\">\n<td style=\"box-sizing: border-box; user-select: text; width: 116px; background-color: #eee5c8; text-align: center; height: 20px;\">Blue or bronze</td>\n<td style=\"box-sizing: border-box; user-select: text; width: 251px; background-color: #eee5c8; text-align: center; height: 20px;\">30-foot line of electricity (Reflex)</td>\n</tr>\n<tr style=\"box-sizing: border-box; user-select: text; height: 20px;\">\n<td style=\"box-sizing: border-box; user-select: text; width: 116px; background-color: #f6f1e1; text-align: center; height: 20px;\">Brass</td>\n<td style=\"box-sizing: border-box; user-select: text; width: 251px; background-color: #f6f1e1; text-align: center; height: 20px;\">30-foot line of fire (Reflex)</td>\n</tr>\n<tr style=\"box-sizing: border-box; user-select: text; height: 20px;\">\n<td style=\"box-sizing: border-box; user-select: text; width: 116px; background-color: #eee5c8; text-align: center; height: 20px;\">Green</td>\n<td style=\"box-sizing: border-box; user-select: text; width: 251px; background-color: #eee5c8; text-align: center; height: 20px;\">15-foot cone of poison (Fortitude)</td>\n</tr>\n<tr style=\"box-sizing: border-box; user-select: text; height: 20px;\">\n<td style=\"box-sizing: border-box; user-select: text; width: 116px; background-color: #f6f1e1; text-align: center; height: 20px;\">Gold or red</td>\n<td style=\"box-sizing: border-box; user-select: text; width: 251px; background-color: #f6f1e1; text-align: center; height: 20px;\">15-foot cone of fire (Reflex)</td>\n</tr>\n<tr style=\"box-sizing: border-box; user-select: text; height: 20px;\">\n<td style=\"box-sizing: border-box; user-select: text; width: 116px; background-color: #eee5c8; text-align: center; height: 20px;\">Silver or white</td>\n<td style=\"box-sizing: border-box; user-select: text; width: 251px; background-color: #eee5c8; text-align: center; height: 20px;\">15-foot cone of cold (Reflex)<br style=\"box-sizing: border-box; user-select: text;\"></td>\n</tr>\n</tbody>\n</table>"
        },
        "dex": {
            "label": "Dex Modifier Cap",
            "type": "String",
            "value": ""
        },
        "equipped": {
            "label": "Equipped",
            "type": "Boolean",
            "value": true
        },
        "equippedBulk": {
            "value": ""
        },
        "group": {
            "label": "Group",
            "type": "String",
            "value": ""
        },
        "hardness": {
            "value": 8
        },
        "hp": {
            "value": 32
        },
        "identification": {
            "status": "identified"
        },
        "identified": {
            "value": true
        },
        "invested": {
            "value": false
        },
        "level": {
            "label": "Item Level",
            "type": "Number",
            "value": 9
        },
        "maxHp": {
            "value": 32
        },
        "negateBulk": {
            "value": "0"
        },
        "potency": {
            "label": "Armor Potency",
            "type": "String"
        },
        "potencyRune": {
            "value": ""
        },
        "preciousMaterial": {
            "value": "dragonhide"
        },
        "preciousMaterialGrade": {
            "value": ""
        },
        "price": {
            "label": "Price",
            "type": "String",
            "value": "670 gp"
        },
        "propertyRune1": {
            "value": ""
        },
        "propertyRune2": {
            "value": ""
        },
        "propertyRune3": {
            "value": ""
        },
        "propertyRune4": {
            "value": ""
        },
        "quantity": {
            "label": "Quantity",
            "type": "Number",
            "value": 1
        },
        "rarity": {
            "value": "common"
        },
        "resiliencyRune": {
            "value": ""
        },
        "resilient": {
            "label": "Resilient",
            "type": "String"
        },
        "rules": [],
        "size": {
            "value": "med"
        },
        "source": {
            "label": "Source",
            "type": "String",
            "value": ""
        },
        "speed": {
            "label": "Speed Penalty",
            "type": "String",
            "value": ""
        },
        "stackGroup": {
            "value": ""
        },
        "strength": {
            "label": "Required Strength",
            "type": "String",
            "value": ""
        },
        "traits": {
            "custom": "",
            "label": "Traits",
            "rarity": {
                "value": "uncommon"
            },
            "type": "String",
            "value": [
                "abjuration",
                "magical"
            ]
        },
        "usage": {
            "value": "held-in-one-hand"
        },
        "weight": {
            "label": "Bulk",
            "type": "Number",
            "value": "1"
        }
    },
    "effects": [],
    "flags": {},
    "img": "systems/pf2e/icons/equipment/shields/specific-shields/dragonslayers-shield.jpg",
    "name": "Dragonslayer's Shield",
    "permission": {
        "default": 0
    },
    "type": "armor"
}
