{
    "_id": "3xsQ1AA4dyMHLxpw",
    "data": {
        "armor": {
            "label": "AC Bonus",
            "type": "Number",
            "value": 6
        },
        "armorType": {
            "label": "Armor Category",
            "type": "String",
            "value": "heavy"
        },
        "baseItem": null,
        "brokenThreshold": {
            "value": null
        },
        "bulkCapacity": {
            "value": ""
        },
        "check": {
            "label": "Check Penalty",
            "type": "String",
            "value": -3
        },
        "collapsed": {
            "value": false
        },
        "containerId": {
            "value": ""
        },
        "description": {
            "chat": "",
            "label": "Description",
            "type": "String",
            "unidentified": "",
            "value": "<p>This suit of +2 greater resilient dragonhide full plate makes you look like a fearsome dragon. The armor comes in 10 varieties corresponding to the 10 common dragon types, though other varieties undoubtedly exist.</p>\n<p><strong>Activate</strong> <span style=\"font-family: 'Pathfinder2eActions'; font-size: 1.8em; display: inline;\">D</span> Interact</p>\n<p><strong>Frequency</strong> once per day</p>\n<p><strong>Effect</strong> You unleash a bout of dragon breath with a shape, damage type, and saving throw corresponding to the type of dragon used to make the armor (shown on the table below). The breath weapon deals 14d6 damage; each creature in the area must attempt a DC 36 basic saving throw.</p>\n<hr />\n<p><strong>Craft Requirements</strong> The initial raw materials must include 1,250 gp of dragonhide.</p>"
        },
        "dex": {
            "label": "Dex Modifier Cap",
            "type": "String",
            "value": 0
        },
        "equipped": {
            "label": "Equipped",
            "type": "Boolean",
            "value": false
        },
        "equippedBulk": {
            "value": "4"
        },
        "group": {
            "label": "Group",
            "type": "String",
            "value": "plate"
        },
        "hardness": {
            "value": null
        },
        "hp": {
            "value": null
        },
        "identification": {
            "status": "identified"
        },
        "identified": {
            "value": true
        },
        "invested": {
            "value": false
        },
        "level": {
            "label": "Item Level",
            "type": "Number",
            "value": 16
        },
        "maxHp": {
            "value": null
        },
        "negateBulk": {
            "value": "0"
        },
        "potency": {
            "label": "Armor Potency",
            "type": "String"
        },
        "potencyRune": {
            "value": "2"
        },
        "preciousMaterial": {
            "value": "dragonhide"
        },
        "preciousMaterialGrade": {
            "value": "standard"
        },
        "price": {
            "label": "Price",
            "type": "String",
            "value": "10,000 gp"
        },
        "propertyRune1": {
            "value": ""
        },
        "propertyRune2": {
            "value": ""
        },
        "propertyRune3": {
            "value": ""
        },
        "propertyRune4": {
            "value": ""
        },
        "quantity": {
            "label": "Quantity",
            "type": "Number",
            "value": 1
        },
        "rarity": {
            "value": "common"
        },
        "resiliencyRune": {
            "value": "greaterResilient"
        },
        "resilient": {
            "label": "Resilient",
            "type": "String"
        },
        "rules": [
            {
                "key": "PF2E.RuleElement.FlatModifier",
                "predicate": {
                    "not": [
                        "unburdened-iron"
                    ]
                },
                "roll-options": [
                    "all"
                ],
                "selector": "speed",
                "type": "untyped",
                "value": {
                    "brackets": [
                        {
                            "end": 17,
                            "value": -10
                        },
                        {
                            "start": 18,
                            "value": -5
                        }
                    ],
                    "field": "actor|data.abilities.str.value"
                }
            },
            {
                "key": "PF2E.RuleElement.FlatModifier",
                "label": "Bulwark",
                "predicate": {
                    "all": [
                        "damaging-effect"
                    ]
                },
                "selector": "reflex",
                "type": "ability",
                "value": 3
            }
        ],
        "size": {
            "value": "med"
        },
        "source": {
            "label": "Source",
            "type": "String",
            "value": ""
        },
        "speed": {
            "label": "Speed Penalty",
            "type": "String",
            "value": "-10 ft"
        },
        "stackGroup": {
            "value": ""
        },
        "strength": {
            "label": "Required Strength",
            "type": "String",
            "value": 18
        },
        "traits": {
            "custom": "",
            "label": "Traits",
            "rarity": {
                "value": "uncommon"
            },
            "type": "String",
            "value": [
                "bulwark",
                "evocation",
                "invested",
                "magical"
            ]
        },
        "usage": {
            "value": "wornarmor"
        },
        "weight": {
            "label": "Bulk",
            "type": "Number",
            "value": "5"
        }
    },
    "effects": [],
    "flags": {},
    "img": "systems/pf2e/icons/equipment/armor/specific-magic-armor/dragonplate.jpg",
    "name": "Dragonplate",
    "permission": {
        "default": 0
    },
    "type": "armor"
}
