{
    "_id": "DIzZr0K20eCbNzQo",
    "data": {
        "armor": {
            "label": "AC Bonus",
            "type": "Number",
            "value": 2
        },
        "armorType": {
            "label": "Armor Category",
            "type": "String",
            "value": "shield"
        },
        "baseItem": null,
        "brokenThreshold": {
            "value": 16
        },
        "bulkCapacity": {
            "value": ""
        },
        "check": {
            "label": "Check Penalty",
            "type": "String",
            "value": ""
        },
        "collapsed": {
            "value": false
        },
        "containerId": {
            "value": ""
        },
        "description": {
            "chat": "",
            "label": "Description",
            "type": "String",
            "unidentified": "",
            "value": "<p>The edges of this elaborately engraved steel shield (Hardness 8, HP 32, BT 16) bear tiny glass tiles set in mosaic patterns.</p>\n<p><strong>Activate</strong> <span style=\"font-family: 'Pathfinder2eActions'; font-size: 1.8em; display: inline;\">A</span> command</p>\n<p><strong>Frequency</strong> once per day</p>\n<p><strong>Effect</strong> The shield surrounds you with a bubble of force that protects you from harm, granting you resistance 5 to physical damage for 1 minute. The bubble disappears if you cease holding the shield.</p>"
        },
        "dex": {
            "label": "Dex Modifier Cap",
            "type": "String",
            "value": ""
        },
        "equipped": {
            "label": "Equipped",
            "type": "Boolean",
            "value": true
        },
        "equippedBulk": {
            "value": ""
        },
        "group": {
            "label": "Group",
            "type": "String",
            "value": ""
        },
        "hardness": {
            "value": 8
        },
        "hp": {
            "value": 32
        },
        "identification": {
            "status": "identified"
        },
        "identified": {
            "value": true
        },
        "invested": {
            "value": false
        },
        "level": {
            "label": "Item Level",
            "type": "Number",
            "value": 9
        },
        "maxHp": {
            "value": 32
        },
        "negateBulk": {
            "value": "0"
        },
        "potency": {
            "label": "Armor Potency",
            "type": "String"
        },
        "potencyRune": {
            "value": ""
        },
        "preciousMaterial": {
            "value": ""
        },
        "preciousMaterialGrade": {
            "value": ""
        },
        "price": {
            "label": "Price",
            "type": "String",
            "value": "650 gp"
        },
        "propertyRune1": {
            "value": ""
        },
        "propertyRune2": {
            "value": ""
        },
        "propertyRune3": {
            "value": ""
        },
        "propertyRune4": {
            "value": ""
        },
        "quantity": {
            "label": "Quantity",
            "type": "Number",
            "value": 1
        },
        "rarity": {
            "value": "common"
        },
        "resiliencyRune": {
            "value": ""
        },
        "resilient": {
            "label": "Resilient",
            "type": "String"
        },
        "rules": [],
        "size": {
            "value": "med"
        },
        "source": {
            "label": "Source",
            "type": "String",
            "value": ""
        },
        "speed": {
            "label": "Speed Penalty",
            "type": "String",
            "value": ""
        },
        "stackGroup": {
            "value": ""
        },
        "strength": {
            "label": "Required Strength",
            "type": "String",
            "value": ""
        },
        "traits": {
            "custom": "",
            "label": "Traits",
            "rarity": {
                "value": "uncommon"
            },
            "type": "String",
            "value": [
                "evocation",
                "force",
                "magical"
            ]
        },
        "usage": {
            "value": "held-in-one-hand"
        },
        "weight": {
            "label": "Bulk",
            "type": "Number",
            "value": "1"
        }
    },
    "effects": [],
    "flags": {},
    "img": "systems/pf2e/icons/equipment/shields/specific-shields/force-shield.jpg",
    "name": "Force Shield",
    "permission": {
        "default": 0
    },
    "type": "armor"
}
