{
    "_id": "hRwnNTMj7wa8S4Ji",
    "data": {
        "armor": {
            "label": "AC Bonus",
            "type": "Number",
            "value": 3
        },
        "armorType": {
            "label": "Armor Category",
            "type": "String",
            "value": "medium"
        },
        "baseItem": null,
        "brokenThreshold": {
            "value": null
        },
        "bulkCapacity": {
            "value": ""
        },
        "check": {
            "label": "Check Penalty",
            "type": "String",
            "value": "-2"
        },
        "collapsed": {
            "value": false
        },
        "containerId": {
            "value": ""
        },
        "description": {
            "chat": "",
            "label": "Description",
            "type": "String",
            "unidentified": "",
            "value": "<p>Stitched together from pieces of ghoul skin, this suit of <em>+1 </em><em>hide armor </em>grants you a +1 item bonus to saving throws against disease and paralysis and makes you immune to the paralysis of ghouls. <em>Ghoul hide</em> with a <em>resilient rune</em> increases the resilient rune's item bonus to saving throws against disease and paralysis by 1 (maximum +4).</p>\n<p><em>Ghoul hide</em> hisses with sibilant hatred at the touch of elves. When worn by a creature with the elf trait, the armor gains the noisy trait.</p>\n<hr />\n<p>Automatically applied effects:</p>\n<ul>\n<li>+1 item bonus to saving throws against disease and paralysis </li>\n</ul>"
        },
        "dex": {
            "label": "Dex Modifier Cap",
            "type": "String",
            "value": "2"
        },
        "equipped": {
            "label": "Equipped",
            "type": "Boolean",
            "value": true
        },
        "equippedBulk": {
            "value": "2"
        },
        "group": {
            "label": "Group",
            "type": "String",
            "value": "leather"
        },
        "hardness": {
            "value": null
        },
        "hp": {
            "value": null
        },
        "identification": {
            "status": "identified"
        },
        "identified": {
            "value": true
        },
        "invested": {
            "value": false
        },
        "level": {
            "label": "Item Level",
            "type": "Number",
            "value": 6
        },
        "maxHp": {
            "value": null
        },
        "negateBulk": {
            "value": "0"
        },
        "potency": {
            "label": "Armor Potency",
            "type": "String"
        },
        "potencyRune": {
            "value": "1"
        },
        "preciousMaterial": {
            "value": ""
        },
        "preciousMaterialGrade": {
            "value": ""
        },
        "price": {
            "label": "Price",
            "type": "String",
            "value": "220 gp"
        },
        "propertyRune1": {
            "value": ""
        },
        "propertyRune2": {
            "value": ""
        },
        "propertyRune3": {
            "value": ""
        },
        "propertyRune4": {
            "value": ""
        },
        "quantity": {
            "label": "Quantity",
            "type": "Number",
            "value": 1
        },
        "rarity": {
            "value": "common"
        },
        "resiliencyRune": {
            "value": ""
        },
        "resilient": {
            "label": "Resilient",
            "type": "String"
        },
        "rules": [
            {
                "key": "PF2E.RuleElement.FlatModifier",
                "label": "Ghoul Hide (vs. disease & paralysis)",
                "predicate": {
                    "any": [
                        "disease",
                        "paralysis"
                    ]
                },
                "selector": "saving-throw",
                "type": "item",
                "value": 1
            }
        ],
        "size": {
            "value": "med"
        },
        "source": {
            "label": "Source",
            "type": "String",
            "value": ""
        },
        "speed": {
            "label": "Speed Penalty",
            "type": "String",
            "value": ""
        },
        "stackGroup": {
            "value": ""
        },
        "strength": {
            "label": "Required Strength",
            "type": "String",
            "value": "14"
        },
        "traits": {
            "custom": "",
            "label": "Traits",
            "rarity": {
                "value": "uncommon"
            },
            "type": "String",
            "value": [
                "invested",
                "magical",
                "necromancy"
            ]
        },
        "usage": {
            "value": "wornarmor"
        },
        "weight": {
            "label": "Bulk",
            "type": "Number",
            "value": "3"
        }
    },
    "effects": [],
    "flags": {},
    "img": "systems/pf2e/icons/equipment/armor/specific-magic-armor/ghoul-hide.jpg",
    "name": "Ghoul Hide",
    "permission": {
        "default": 0
    },
    "type": "armor"
}
