{
    "_id": "MP7updiiSct04vno",
    "data": {
        "activation": {
            "condition": "",
            "cost": 0,
            "type": ""
        },
        "autoDestroy": {
            "_deprecated": true,
            "label": "Destroy on Empty",
            "type": "Boolean",
            "value": true
        },
        "autoUse": {
            "_deprecated": true,
            "label": "Consume on Use",
            "type": "Boolean",
            "value": true
        },
        "baseItem": null,
        "brokenThreshold": {
            "value": 0
        },
        "bulkCapacity": {
            "value": ""
        },
        "charges": {
            "_deprecated": true,
            "label": "Charges",
            "max": 1,
            "type": "Number",
            "value": 1
        },
        "collapsed": {
            "value": false
        },
        "consumableType": {
            "label": "Consumable Type",
            "type": "String",
            "value": "potion"
        },
        "consume": {
            "_deprecated": true,
            "label": "Roll on Consume",
            "type": "String",
            "value": ""
        },
        "containerId": {
            "value": ""
        },
        "description": {
            "chat": "",
            "label": "Description",
            "type": "String",
            "unidentified": "",
            "value": "<p>Concentrated hemlock is a particularly deadly toxin that halts muscle action-including that of the victim's heart.</p>\n<hr />\n<p><strong>Activate</strong> <span style=\"font-family: 'Pathfinder2eActions'; font-size: 1.8em; display: inline;\">A</span> Interact (Ingested)</p>\n<p><strong>Saving Throw</strong> DC 40 Fortitude</p>\n<p><strong>Onset</strong> 30 minutes</p>\n<p><strong>Maximum Duration</strong> 60 minutes</p>\n<p><strong>Stage 1</strong> [[/r 17d6#poison]] poison damage and @Compendium[pf2e.conditionitems.Enfeebled]{Enfeebled} 2 (10 minutes)</p>\n<p><strong>Stage 2</strong> [[/r 21d6#poison]] poison damage and enfeebled 3 (10 minutes)</p>\n<p><strong>Stage 3</strong> [[/r 26d6#poison]] poison damage and enfeebled 4 (10 minutes)</p>"
        },
        "duration": {
            "units": "",
            "value": null
        },
        "equipped": {
            "value": false
        },
        "equippedBulk": {
            "value": ""
        },
        "hardness": {
            "value": 0
        },
        "hp": {
            "value": 0
        },
        "identification": {
            "status": "identified"
        },
        "identified": {
            "value": true
        },
        "invested": {
            "value": false
        },
        "level": {
            "label": "Item Level",
            "type": "Number",
            "value": 17
        },
        "maxHp": {
            "value": 0
        },
        "negateBulk": {
            "value": "0"
        },
        "preciousMaterial": {
            "value": ""
        },
        "preciousMaterialGrade": {
            "value": ""
        },
        "price": {
            "label": "Price",
            "type": "String",
            "value": " 2,250 gp"
        },
        "quantity": {
            "label": "Quantity",
            "type": "Number",
            "value": 1
        },
        "range": {
            "long": null,
            "units": "",
            "value": null
        },
        "rarity": {
            "value": "common"
        },
        "rules": [],
        "size": {
            "value": "med"
        },
        "source": {
            "label": "Source",
            "type": "String",
            "value": ""
        },
        "spell": {
            "data": null,
            "heightenedLevel": null
        },
        "stackGroup": {
            "value": ""
        },
        "target": {
            "type": "",
            "units": "",
            "value": null
        },
        "traits": {
            "custom": "",
            "rarity": {
                "value": "common"
            },
            "usage": {
                "value": "held-in-one-hand"
            },
            "value": [
                "alchemical",
                "consumable",
                "ingested",
                "poison"
            ]
        },
        "usage": {
            "value": "held-in-one-hand"
        },
        "uses": {
            "autoDestroy": true,
            "autoUse": true,
            "max": 0,
            "per": null,
            "value": 0
        },
        "weight": {
            "label": "Bulk",
            "type": "Number",
            "value": "L"
        }
    },
    "effects": [],
    "flags": {},
    "img": "systems/pf2e/icons/equipment/alchemical-items/alchemical-poisons/hemlock.jpg",
    "name": "Hemlock",
    "permission": {
        "default": 0
    },
    "type": "consumable"
}
