{
    "_id": "TTCw5NusiSSkJU1x",
    "data": {
        "actionCategory": {
            "value": "defensive"
        },
        "actionType": {
            "value": "passive"
        },
        "actions": {
            "value": ""
        },
        "description": {
            "chat": "",
            "unidentified": "",
            "value": "<p>A creature with negative healing draws health from negative energy rather than positive energy. It is damaged by positive damage and is not healed by positive healing effects. It does not take negative damage, and it is healed by negative effects that heal undead.</p>"
        },
        "rarity": {
            "value": "common"
        },
        "requirements": {
            "value": ""
        },
        "rules": [],
        "source": {
            "value": ""
        },
        "traits": {
            "custom": "",
            "rarity": {
                "value": "common"
            },
            "value": []
        },
        "trigger": {
            "value": ""
        },
        "weapon": {
            "value": ""
        }
    },
    "effects": [],
    "flags": {},
    "img": "systems/pf2e/icons/default-icons/action.svg",
    "name": "Negative Healing",
    "permission": {
        "default": 0
    },
    "type": "action"
}
