{
    "_id": "ReeHjUHe9QgxP4mB",
    "data": {
        "abilities": {
            "cha": {
                "min": 3,
                "mod": 0,
                "value": 10
            },
            "con": {
                "min": 3,
                "mod": 0,
                "value": 10
            },
            "dex": {
                "min": 3,
                "mod": 0,
                "value": 10
            },
            "int": {
                "min": 3,
                "mod": 0,
                "value": 10
            },
            "str": {
                "min": 3,
                "mod": 0,
                "value": 10
            },
            "wis": {
                "min": 3,
                "mod": 0,
                "value": 10
            }
        },
        "attributes": {
            "ac": {
                "breakdown": "Base AC 10, Dexterity +0, Untrained +0, Familiar +5",
                "check": 0,
                "details": "",
                "dex": 0,
                "dexCap": {
                    "source": "Familiar",
                    "value": 0
                },
                "item": 0,
                "min": 0,
                "name": "ac",
                "totalModifier": 5,
                "value": 15
            },
            "allSaves": {
                "value": ""
            },
            "ancestryhp": 5,
            "bonusEncumbranceBulk": 0,
            "bonusLimitBulk": 0,
            "classDC": {
                "ability": "str",
                "breakdown": "Base Class DC 10, Strength +0, Untrained +0",
                "item": 0,
                "name": "PF2E.ClassDCLabel",
                "rank": 0,
                "totalModifier": 0,
                "value": 10
            },
            "classhp": 0,
            "doomed": {
                "max": 3,
                "value": 0
            },
            "dying": {
                "max": 4,
                "value": 0
            },
            "flatbonushp": 0,
            "flatbonussp": 0,
            "heroPoints": {
                "max": 3,
                "rank": 0
            },
            "hp": {
                "breakdown": "Ancestry HP +5, Class HP +0, Constitution +0",
                "details": "",
                "max": 5,
                "min": 0,
                "name": "hp",
                "temp": null,
                "totalModifier": 5,
                "value": 5
            },
            "init": {
                "bonus": 0,
                "value": 0
            },
            "initiative": {
                "ability": "perception",
                "circumstance": 0,
                "label": "Initiative: Perception",
                "name": "initiative",
                "status": 0,
                "totalModifier": 0
            },
            "levelbonushp": 0,
            "levelbonussp": 0,
            "perception": {
                "ability": "wis",
                "breakdown": "Wisdom +0, Untrained +0",
                "item": 0,
                "name": "perception",
                "rank": 0,
                "totalModifier": 0,
                "value": 0
            },
            "resolve": {
                "value": 0
            },
            "shield": {
                "ac": 0,
                "brokenThreshold": 0,
                "hardness": 0,
                "hp": {
                    "value": 0
                },
                "max": 0,
                "min": 0,
                "value": 0
            },
            "sp": {
                "details": "",
                "max": 0,
                "min": 0,
                "value": 0
            },
            "speed": {
                "otherSpeeds": [],
                "value": "25"
            },
            "wounded": {
                "max": 3,
                "value": 0
            }
        },
        "currency": {
            "cp": {
                "value": 0
            },
            "gp": {
                "value": 0
            },
            "pp": {
                "value": 0
            },
            "sp": {
                "value": 0
            }
        },
        "customModifiers": {
            "acrobatics": [],
            "arcana": [
                {
                    "custom": true,
                    "enabled": true,
                    "ignored": false,
                    "modifier": 1,
                    "name": "Familiar",
                    "predicate": {
                        "all": [],
                        "any": [],
                        "not": []
                    },
                    "type": "proficiency"
                }
            ],
            "athletics": [
                {
                    "custom": true,
                    "enabled": true,
                    "ignored": false,
                    "modifier": 1,
                    "name": "Familiar",
                    "predicate": {
                        "all": [],
                        "any": [],
                        "not": []
                    },
                    "type": "proficiency"
                }
            ],
            "crafting": [
                {
                    "custom": true,
                    "enabled": true,
                    "ignored": false,
                    "modifier": 1,
                    "name": "Familiar",
                    "predicate": {
                        "all": [],
                        "any": [],
                        "not": []
                    },
                    "type": "proficiency"
                }
            ],
            "deception": [
                {
                    "custom": true,
                    "enabled": true,
                    "ignored": false,
                    "modifier": 1,
                    "name": "Familiar",
                    "predicate": {
                        "all": [],
                        "any": [],
                        "not": []
                    },
                    "type": "proficiency"
                }
            ],
            "diplomacy": [
                {
                    "custom": true,
                    "enabled": true,
                    "ignored": false,
                    "modifier": 1,
                    "name": "Familiar",
                    "predicate": {
                        "all": [],
                        "any": [],
                        "not": []
                    },
                    "type": "proficiency"
                }
            ],
            "fortitude": [
                {
                    "custom": true,
                    "enabled": true,
                    "ignored": false,
                    "modifier": 4,
                    "name": "Familiar",
                    "predicate": {
                        "all": [],
                        "any": [],
                        "not": []
                    },
                    "type": "proficiency"
                }
            ],
            "intimidation": [
                {
                    "custom": true,
                    "enabled": true,
                    "ignored": false,
                    "modifier": 1,
                    "name": "Familiar",
                    "predicate": {
                        "all": [],
                        "any": [],
                        "not": []
                    },
                    "type": "proficiency"
                }
            ],
            "medicine": [
                {
                    "custom": true,
                    "enabled": true,
                    "ignored": false,
                    "modifier": 1,
                    "name": "Familiar",
                    "predicate": {
                        "all": [],
                        "any": [],
                        "not": []
                    },
                    "type": "proficiency"
                }
            ],
            "nature": [
                {
                    "custom": true,
                    "enabled": true,
                    "ignored": false,
                    "modifier": 1,
                    "name": "Familiar",
                    "predicate": {
                        "all": [],
                        "any": [],
                        "not": []
                    },
                    "type": "proficiency"
                }
            ],
            "occultism": [
                {
                    "custom": true,
                    "enabled": true,
                    "ignored": false,
                    "modifier": 1,
                    "name": "Familiar",
                    "predicate": {
                        "all": [],
                        "any": [],
                        "not": []
                    },
                    "type": "proficiency"
                }
            ],
            "performance": [
                {
                    "custom": true,
                    "enabled": true,
                    "ignored": false,
                    "modifier": 1,
                    "name": "Familiar",
                    "predicate": {
                        "all": [],
                        "any": [],
                        "not": []
                    },
                    "type": "proficiency"
                }
            ],
            "reflex": [
                {
                    "custom": true,
                    "enabled": true,
                    "ignored": false,
                    "modifier": 5,
                    "name": "Familiar",
                    "predicate": {
                        "all": [],
                        "any": [],
                        "not": []
                    },
                    "type": "proficiency"
                }
            ],
            "religion": [
                {
                    "custom": true,
                    "enabled": true,
                    "ignored": false,
                    "modifier": 1,
                    "name": "Familiar",
                    "predicate": {
                        "all": [],
                        "any": [],
                        "not": []
                    },
                    "type": "proficiency"
                }
            ],
            "society": [
                {
                    "custom": true,
                    "enabled": true,
                    "ignored": false,
                    "modifier": 1,
                    "name": "Familiar",
                    "predicate": {
                        "all": [],
                        "any": [],
                        "not": []
                    },
                    "type": "proficiency"
                }
            ],
            "stealth": [
                {
                    "custom": true,
                    "enabled": true,
                    "ignored": false,
                    "modifier": 5,
                    "name": "Familiar",
                    "predicate": {
                        "all": [],
                        "any": [],
                        "not": []
                    },
                    "type": "proficiency"
                }
            ],
            "survival": [
                {
                    "custom": true,
                    "enabled": true,
                    "ignored": false,
                    "modifier": 1,
                    "name": "Familiar",
                    "predicate": {
                        "all": [],
                        "any": [],
                        "not": []
                    },
                    "type": "proficiency"
                }
            ],
            "thievery": [
                {
                    "custom": true,
                    "enabled": true,
                    "ignored": false,
                    "modifier": 1,
                    "name": "Familiar",
                    "predicate": {
                        "all": [],
                        "any": [],
                        "not": []
                    },
                    "type": "proficiency"
                }
            ],
            "will": [
                {
                    "custom": true,
                    "enabled": true,
                    "ignored": false,
                    "modifier": 7,
                    "name": "Familiar",
                    "predicate": {
                        "all": [],
                        "any": [],
                        "not": []
                    },
                    "type": "proficiency"
                }
            ]
        },
        "damageDice": {},
        "details": {
            "age": {
                "value": ""
            },
            "alignment": {
                "value": "N"
            },
            "ancestry": {
                "value": "Nine-Tailed Fox"
            },
            "background": {
                "value": ""
            },
            "biography": {
                "public": "",
                "value": ""
            },
            "class": {
                "value": "Familiar"
            },
            "deity": {
                "image": "systems/pf2e/assets/sheet/deity.png",
                "value": ""
            },
            "ethnicity": {
                "value": ""
            },
            "gender": {
                "value": ""
            },
            "height": {
                "value": ""
            },
            "heritage": {
                "value": ""
            },
            "keyability": {
                "value": "str"
            },
            "level": {
                "min": 1,
                "value": 5
            },
            "nationality": {
                "value": ""
            },
            "weight": {
                "value": ""
            },
            "xp": {
                "max": 1000,
                "min": 0,
                "pct": 0,
                "value": 0
            }
        },
        "martial": {
            "advanced": {
                "breakdown": "Untrained +0",
                "rank": 0,
                "value": 0
            },
            "heavy": {
                "breakdown": "Untrained +0",
                "rank": 0,
                "value": 0
            },
            "light": {
                "breakdown": "Untrained +0",
                "rank": 0,
                "value": 0
            },
            "martial": {
                "breakdown": "Untrained +0",
                "rank": 0,
                "value": 0
            },
            "medium": {
                "breakdown": "Untrained +0",
                "rank": 0,
                "value": 0
            },
            "simple": {
                "breakdown": "Untrained +0",
                "rank": 0,
                "value": 0
            },
            "unarmed": {
                "breakdown": "Untrained +0",
                "rank": 0,
                "value": 0
            },
            "unarmored": {
                "breakdown": "Untrained +0",
                "rank": 0,
                "value": 0
            }
        },
        "pfs": {
            "characterNumber": "",
            "levelBump": false,
            "playerNumber": ""
        },
        "saves": {
            "fortitude": {
                "ability": "con",
                "breakdown": "Constitution +0, Familiar +4",
                "item": 0,
                "name": "fortitude",
                "rank": 0,
                "saveDetail": "",
                "totalModifier": 4,
                "value": 4
            },
            "reflex": {
                "ability": "dex",
                "breakdown": "Dexterity +0, Familiar +5",
                "item": 0,
                "name": "reflex",
                "rank": 0,
                "saveDetail": "",
                "totalModifier": 5,
                "value": 5
            },
            "will": {
                "ability": "wis",
                "breakdown": "Wisdom +0, Familiar +7",
                "item": 0,
                "name": "will",
                "rank": 0,
                "saveDetail": "",
                "totalModifier": 7,
                "value": 7
            }
        },
        "schema": {
            "version": {
                "value": ""
            }
        },
        "skills": {
            "acr": {
                "ability": "dex",
                "armor": 1,
                "breakdown": "Dexterity +0, Untrained +0",
                "item": 0,
                "mod": 0,
                "name": "acrobatics",
                "rank": 0,
                "totalModifier": 0,
                "value": 0
            },
            "arc": {
                "ability": "int",
                "breakdown": "Intelligence +0, Familiar +1",
                "item": 0,
                "mod": 0,
                "name": "arcana",
                "rank": 0,
                "totalModifier": 1,
                "value": 1
            },
            "ath": {
                "ability": "str",
                "armor": 1,
                "breakdown": "Strength +0, Familiar +1",
                "item": 0,
                "mod": 0,
                "name": "athletics",
                "rank": 0,
                "totalModifier": 1,
                "value": 1
            },
            "cra": {
                "ability": "int",
                "breakdown": "Intelligence +0, Familiar +1",
                "item": 0,
                "mod": 0,
                "name": "crafting",
                "rank": 0,
                "totalModifier": 1,
                "value": 1
            },
            "dec": {
                "ability": "cha",
                "breakdown": "Charisma +0, Familiar +1",
                "item": 0,
                "mod": 0,
                "name": "deception",
                "rank": 0,
                "totalModifier": 1,
                "value": 1
            },
            "dip": {
                "ability": "cha",
                "breakdown": "Charisma +0, Familiar +1",
                "item": 0,
                "mod": 0,
                "name": "diplomacy",
                "rank": 0,
                "totalModifier": 1,
                "value": 1
            },
            "itm": {
                "ability": "cha",
                "breakdown": "Charisma +0, Familiar +1",
                "item": 0,
                "mod": 0,
                "name": "intimidation",
                "rank": 0,
                "totalModifier": 1,
                "value": 1
            },
            "med": {
                "ability": "wis",
                "breakdown": "Wisdom +0, Familiar +1",
                "item": 0,
                "mod": 0,
                "name": "medicine",
                "rank": 0,
                "totalModifier": 1,
                "value": 1
            },
            "nat": {
                "ability": "wis",
                "breakdown": "Wisdom +0, Familiar +1",
                "item": 0,
                "mod": 0,
                "name": "nature",
                "rank": 0,
                "totalModifier": 1,
                "value": 1
            },
            "occ": {
                "ability": "int",
                "breakdown": "Intelligence +0, Familiar +1",
                "item": 0,
                "mod": 0,
                "name": "occultism",
                "rank": 0,
                "totalModifier": 1,
                "value": 1
            },
            "prf": {
                "ability": "cha",
                "breakdown": "Charisma +0, Familiar +1",
                "item": 0,
                "mod": 0,
                "name": "performance",
                "rank": 0,
                "totalModifier": 1,
                "value": 1
            },
            "rel": {
                "ability": "wis",
                "breakdown": "Wisdom +0, Familiar +1",
                "item": 0,
                "mod": 0,
                "name": "religion",
                "rank": 0,
                "totalModifier": 1,
                "value": 1
            },
            "soc": {
                "ability": "int",
                "breakdown": "Intelligence +0, Familiar +1",
                "item": 0,
                "mod": 0,
                "name": "society",
                "rank": 0,
                "totalModifier": 1,
                "value": 1
            },
            "ste": {
                "ability": "dex",
                "armor": 1,
                "breakdown": "Dexterity +0, Familiar +5",
                "item": 0,
                "mod": 0,
                "name": "stealth",
                "rank": 0,
                "totalModifier": 5,
                "value": 5
            },
            "sur": {
                "ability": "wis",
                "breakdown": "Wisdom +0, Familiar +1",
                "item": 0,
                "mod": 0,
                "name": "survival",
                "rank": 0,
                "totalModifier": 1,
                "value": 1
            },
            "thi": {
                "ability": "dex",
                "armor": 1,
                "breakdown": "Dexterity +0, Familiar +1",
                "item": 0,
                "mod": 0,
                "name": "thievery",
                "rank": 0,
                "totalModifier": 1,
                "value": 1
            }
        },
        "spells": {
            "spell0": {
                "max": 0
            },
            "spell1": {
                "max": 0
            },
            "spell10": {
                "max": 0
            },
            "spell11": {
                "max": 0
            },
            "spell2": {
                "max": 0
            },
            "spell3": {
                "max": 0
            },
            "spell4": {
                "max": 0
            },
            "spell5": {
                "max": 0
            },
            "spell6": {
                "max": 0
            },
            "spell7": {
                "max": 0
            },
            "spell8": {
                "max": 0
            },
            "spell9": {
                "max": 0
            }
        },
        "statusEffects": [],
        "traits": {
            "ci": [],
            "di": {
                "custom": "",
                "value": []
            },
            "dr": [],
            "dv": [],
            "languages": {
                "custom": "Empathic Connection",
                "selected": [],
                "value": [
                    "Empathic Connection"
                ]
            },
            "senses": [
                {
                    "exceptions": "",
                    "label": "Low-Light Vision",
                    "type": "lowLightVision",
                    "value": ""
                },
                {
                    "exceptions": "",
                    "label": "Scent",
                    "type": "scent",
                    "value": "30"
                }
            ],
            "size": {
                "value": "med"
            },
            "traits": {
                "custom": "",
                "value": []
            }
        }
    },
    "effects": [],
    "flags": {},
    "img": "icons/svg/mystery-man.svg",
    "items": [
        {
            "_id": "nRNGanjn8mb86zyS",
            "data": {
                "armor": {
                    "value": "5"
                },
                "armorType": {
                    "value": "unarmored"
                },
                "brokenThreshold": {
                    "value": 0
                },
                "bulkCapacity": {
                    "value": ""
                },
                "check": {
                    "value": "0"
                },
                "collapsed": {
                    "value": false
                },
                "containerId": {
                    "value": ""
                },
                "description": {
                    "chat": "",
                    "unidentified": "",
                    "value": ""
                },
                "dex": {
                    "value": "0"
                },
                "equipped": {
                    "value": true
                },
                "equippedBulk": {
                    "value": ""
                },
                "group": {
                    "value": ""
                },
                "hardness": {
                    "value": 0
                },
                "hp": {
                    "value": 0
                },
                "identification": {
                    "status": "identified"
                },
                "identified": {
                    "value": false
                },
                "invested": {
                    "value": false
                },
                "level": {
                    "value": "0"
                },
                "maxHp": {
                    "value": 0
                },
                "negateBulk": {
                    "value": "0"
                },
                "potencyRune": {
                    "value": ""
                },
                "preciousMaterial": {
                    "value": ""
                },
                "preciousMaterialGrade": {
                    "value": ""
                },
                "price": {
                    "value": "0"
                },
                "property1": {
                    "critDamage": "",
                    "critDamageType": "",
                    "critDice": 0,
                    "critDie": "",
                    "damageType": "",
                    "dice": 0,
                    "die": "",
                    "value": ""
                },
                "property2": {
                    "critDamage": "",
                    "critDamageType": "",
                    "critDice": 0,
                    "critDie": "",
                    "damageType": "",
                    "dice": 0,
                    "die": "",
                    "value": ""
                },
                "property3": {
                    "critDamage": "",
                    "critDamageType": "",
                    "critDice": 0,
                    "critDie": "",
                    "damageType": "",
                    "dice": 0,
                    "die": "",
                    "value": ""
                },
                "propertyRune1": {
                    "value": ""
                },
                "propertyRune2": {
                    "value": ""
                },
                "propertyRune3": {
                    "value": ""
                },
                "propertyRune4": {
                    "value": ""
                },
                "quantity": {
                    "value": "1"
                },
                "rarity": {
                    "value": "common"
                },
                "resiliencyRune": {
                    "value": ""
                },
                "rules": [],
                "size": {
                    "value": "med"
                },
                "source": {
                    "value": ""
                },
                "speed": {
                    "value": "0"
                },
                "stackGroup": {
                    "value": ""
                },
                "strength": {
                    "value": "0"
                },
                "traits": {
                    "custom": "",
                    "rarity": {
                        "value": "common"
                    },
                    "value": []
                },
                "usage": {
                    "value": "held-in-one-hand"
                },
                "weight": {
                    "value": "-"
                }
            },
            "effects": [],
            "flags": {},
            "img": "icons/svg/mystery-man.svg",
            "name": "Familiar",
            "sort": 100000,
            "type": "armor"
        }
    ],
    "name": "Daji (Level 5) - Incomplete",
    "permission": {
        "default": 0
    },
    "token": {
        "actorData": {},
        "actorId": "ReeHjUHe9QgxP4mB",
        "actorLink": true,
        "bar1": {
            "attribute": "attributes.hp"
        },
        "bar2": {
            "attribute": ""
        },
        "brightLight": 0,
        "brightSight": 0,
        "dimLight": 0,
        "dimSight": 300,
        "displayBars": 20,
        "displayName": 20,
        "disposition": 1,
        "flags": {},
        "height": 1,
        "img": "icons/svg/mystery-man.svg",
        "lightAlpha": 1,
        "lightAngle": 360,
        "lightColor": "",
        "lockRotation": false,
        "mirrorX": false,
        "mirrorY": false,
        "name": "Daji",
        "randomImg": false,
        "rotation": 0,
        "scale": 1,
        "sightAngle": 360,
        "tint": "",
        "vision": true,
        "width": 1
    },
    "type": "character"
}
