{
    "_id": "kMcV8e5EZUxa6evt",
    "data": {
        "actionCategory": {
            "value": ""
        },
        "actionType": {
            "label": "Action Type",
            "type": "String",
            "value": "passive"
        },
        "actions": {
            "label": "Number of Actions",
            "type": "String",
            "value": ""
        },
        "description": {
            "chat": "",
            "label": "Description",
            "type": "String",
            "unidentified": "",
            "value": "<p>You contort yourself to squeeze through a space so small you can barely fit through. This action is for exceptionally small spaces; many tight spaces are difficult terrain that you can move through more quickly and without a check.</p>\n<hr />\n<p><strong>Critical Success</strong> You squeeze through the tight space in 1 minute per 10 feet of squeezing.</p>\n<p><strong>Success</strong> You squeeze through in 1 minute per 5 feet.</p>\n<p><strong>Critical Failure</strong> You become stuck in the tight space. While you're stuck, you can spend 1 minute attempting another <pf2-action action=\"squeeze\">Acrobatics</pf2-action> check at the same DC. Any result on that check other than a critical failure causes you to become unstuck.</p><h2 class=\"title\">Sample Squeeze Tasks</h2>\n<ul>\n<li><strong>Trained</strong> space barely fitting your shoulders</li>\n<li><strong>Master</strong> space barely fitting your head</li>\n</ul>"
        },
        "rarity": {
            "value": "common"
        },
        "requirements": {
            "label": "Requirements",
            "type": "String",
            "value": ""
        },
        "rules": [],
        "source": {
            "label": "Source",
            "type": "String",
            "value": ""
        },
        "traits": {
            "custom": "",
            "label": "Traits",
            "rarity": {
                "value": "common"
            },
            "type": "String",
            "value": [
                "move",
                "skill",
                "exploration"
            ]
        },
        "trigger": {
            "label": "Trigger",
            "type": "String",
            "value": ""
        },
        "weapon": {
            "label": "Associated Weapon",
            "type": "String",
            "value": ""
        }
    },
    "effects": [],
    "flags": {},
    "img": "icons/svg/mystery-man.svg",
    "name": "Squeeze",
    "permission": {
        "default": 0
    },
    "type": "action"
}
