{
    "_id": "qc0VsZ0UesnurUUB",
    "data": {
        "actionCategory": {
            "value": ""
        },
        "actionType": {
            "value": "passive"
        },
        "actions": {
            "value": ""
        },
        "description": {
            "chat": "",
            "unidentified": "",
            "value": "<p><span><strong>Cost</strong> 1 Resolve Point</span></p>\n<hr />\n<p>You rest for 10 minutes and recover your stamina. After you complete this activity, you regain all your Stamina Points.</p>"
        },
        "rarity": {
            "value": "common"
        },
        "requirements": {
            "value": ""
        },
        "rules": [],
        "source": {
            "value": ""
        },
        "traits": {
            "custom": "",
            "rarity": {
                "value": "common"
            },
            "value": [
                "exploration",
                "stamina"
            ]
        },
        "trigger": {
            "value": ""
        },
        "weapon": {
            "value": ""
        }
    },
    "effects": [],
    "flags": {},
    "img": "icons/svg/mystery-man.svg",
    "name": "Take a Breather",
    "permission": {
        "default": 0
    },
    "type": "action"
}
