{
    "_id": "G0lG7IIZnCZtYi6v",
    "data": {
        "description": {
            "chat": "",
            "unidentified": "",
            "value": "<p>Granted by @Compendium[pf2e.equipment-srd.Breastplate of Command]{Breastplate of Command}</p>\n<p>Automatically applied effects:</p>\n<ul>\n<li>+2 status bonus to saves against fear effects</li>\n</ul>\n<p>&nbsp;</p>"
        },
        "duration": {
            "expiry": "turn-start",
            "sustained": false,
            "unit": "minutes",
            "value": 1
        },
        "level": {
            "value": 10
        },
        "rarity": {
            "value": "common"
        },
        "rules": [
            {
                "key": "PF2E.RuleElement.FlatModifier",
                "label": "Breastplate of Command (vs. fear)",
                "predicate": {
                    "all": [
                        "fear"
                    ]
                },
                "selector": "will",
                "type": "status",
                "value": 2
            },
            {
                "key": "PF2E.RuleElement.TokenEffectIcon"
            }
        ],
        "source": {
            "value": ""
        },
        "start": {
            "initiative": null,
            "value": 0
        },
        "traits": {
            "custom": "",
            "rarity": {
                "value": "common"
            },
            "value": []
        }
    },
    "effects": [],
    "flags": {},
    "img": "systems/pf2e/icons/equipment/armor/specific-magic-armor/breastplate-of-command.jpg",
    "name": "Effect: Breastplate of Command",
    "permission": {
        "default": 0
    },
    "type": "effect"
}
