{
    "_id": "EpB7yJPEuG6ez4z3",
    "data": {
        "description": {
            "chat": "",
            "unidentified": "",
            "value": "<p>Granted by @Compendium[pf2e.equipment-srd.Elixir of Life (Lesser)]{Elixir of Life (Lesser)}</p>\n<p>Implemented effects:</p>\n<ul>\n<li>+1 item bonus to saving throws against diseases and poisons</li>\n</ul>\n<p>Unimplemented effects:</p>\n<ul>\n<li>Heal [[/r 3d6+6]] Hit Points</li>\n</ul>"
        },
        "duration": {
            "expiry": "turn-start",
            "sustained": false,
            "unit": "minutes",
            "value": 10
        },
        "level": {
            "value": 5
        },
        "rarity": {
            "value": "common"
        },
        "rules": [
            {
                "key": "PF2E.RuleElement.FlatModifier",
                "label": "Elixir of Life, Lesser (vs. disease & poison)",
                "predicate": {
                    "all": [
                        "disease and poison"
                    ]
                },
                "selector": "saving-throw",
                "type": "item",
                "value": 1
            },
            {
                "key": "PF2E.RuleElement.TokenEffectIcon"
            }
        ],
        "source": {
            "value": ""
        },
        "start": {
            "initiative": null,
            "value": 0
        },
        "traits": {
            "custom": "",
            "rarity": {
                "value": "common"
            },
            "value": []
        }
    },
    "effects": [],
    "flags": {},
    "img": "systems/pf2e/icons/equipment/alchemical-items/alchemical-elixirs/elixir-of-life.jpg",
    "name": "Effect: Elixir of Life (Lesser)",
    "permission": {
        "default": 0
    },
    "type": "effect"
}
