{
    "_id": "82ATEfDMPkZDxV5H",
    "data": {
        "actionCategory": {
            "value": ""
        },
        "actionType": {
            "value": "passive"
        },
        "actions": {
            "value": ""
        },
        "description": {
            "chat": "",
            "unidentified": "",
            "value": "<p>Your deity's blessings manifest in your blood-borne power. Add up to three of your deity's spells (spells your deity grants to clerics) to your spell list. They are not automatically added to your repertoire, but you can select them just as you would spells normally on the divine spell list.</p>"
        },
        "featType": {
            "value": "class"
        },
        "level": {
            "value": "1"
        },
        "prerequisites": {
            "value": [
                "bloodline that grants divine spells",
                "you follow a deity"
            ]
        },
        "rarity": {
            "value": "common"
        },
        "rules": [],
        "source": {
            "value": ""
        },
        "traits": {
            "custom": "",
            "rarity": {
                "value": "common"
            },
            "value": [
                "sorcerer"
            ]
        }
    },
    "effects": [],
    "flags": {},
    "img": "systems/pf2e/icons/features/feats/feats.jpg",
    "name": "Blessed Blood (Sorcerer)",
    "permission": {
        "default": 0
    },
    "type": "feat"
}
