{
    "_id": "MNArjo5Z5LUYITQm",
    "data": {
        "actionCategory": {
            "value": ""
        },
        "actionType": {
            "value": "passive"
        },
        "actions": {
            "value": ""
        },
        "description": {
            "chat": "",
            "unidentified": "",
            "value": "<p>The more people you have looking at you, the more content you are, and you take every opportunity to show up others when their performances are less than perfect.</p>\n<p>You gain the @Compendium[pf2e.actionspf2e.Upstage]{Upstage} reaction. In addition, when you @Compendium[pf2e.actionspf2e.Earn Income]{Earn Income}, if the level of the task is higher than your level, you gain a +1 circumstance bonus to your check to Earn Income.</p>\n<p><strong>Special</strong> You can't select another dedication feat until you have gained two other feats from the celebrity archetype.</p>"
        },
        "featType": {
            "value": "archetype"
        },
        "level": {
            "value": "2"
        },
        "prerequisites": {
            "value": [
                ""
            ]
        },
        "rarity": {
            "value": "common"
        },
        "rules": [],
        "source": {
            "value": ""
        },
        "traits": {
            "custom": "",
            "rarity": {
                "value": "common"
            },
            "value": [
                "archetype",
                "dedication"
            ]
        }
    },
    "effects": [],
    "flags": {},
    "img": "systems/pf2e/icons/features/feats/feats.jpg",
    "name": "Celebrity Dedication",
    "permission": {
        "default": 0
    },
    "type": "feat"
}
