{
    "_id": "uiNRrdnJe0GOzy6Q",
    "data": {
        "actionCategory": {
            "value": ""
        },
        "actionType": {
            "value": "reaction"
        },
        "actions": {
            "value": ""
        },
        "description": {
            "chat": "",
            "unidentified": "",
            "value": "<p><strong>Frequency</strong> once per day<br /><strong>Trigger</strong> You would die as a result of a failed saving throw or recovery check.</p>\n<hr />\n<p>Your previous life ended due to sheer poor luck, struck by lightning or choking on a fish bone. You can reroll the triggering recovery check or saving throw, but you must use the new result, even if it’s worse than the first roll.</p>\n<hr />\n<p><strong>Special</strong> You can select this feat only at 1st level, and you can’t retrain into or out of this feat.</p>"
        },
        "featType": {
            "value": "ancestry"
        },
        "level": {
            "value": 1
        },
        "location": "",
        "prerequisites": [],
        "rarity": {
            "value": "common"
        },
        "rules": [],
        "source": {
            "value": ""
        },
        "traits": {
            "custom": "",
            "rarity": {
                "value": "common"
            },
            "value": [
                "duskwalker",
                "fortune"
            ]
        },
        "usage": {
            "value": ""
        }
    },
    "effects": [],
    "flags": {},
    "img": "systems/pf2e/icons/features/feats/feats.jpg",
    "name": "Chance Death",
    "permission": {
        "default": 0
    },
    "type": "feat"
}
