{
    "_id": "RN5aZCzEnmlYmBf5",
    "data": {
        "actionCategory": {
            "value": ""
        },
        "actionType": {
            "value": "passive"
        },
        "actions": {
            "value": ""
        },
        "description": {
            "chat": "",
            "unidentified": "",
            "value": "<p>When you use Crystalline Dust, you can spend one additional action to disperse the motes as a 10-foot-radius cloud centered on you instead of as haze; the activity gains the concentrate trait. All creatures within the cloud become concealed, and all creatures outside the cloud become concealed to creatures within it.</p>"
        },
        "featType": {
            "value": "ancestry"
        },
        "level": {
            "value": 9
        },
        "location": "",
        "prerequisites": [
            "Crystalline Dust"
        ],
        "rarity": {
            "value": "common"
        },
        "rules": [],
        "source": {
            "value": ""
        },
        "traits": {
            "custom": "",
            "rarity": {
                "value": "common"
            },
            "value": [
                "aphorite"
            ]
        },
        "usage": {
            "value": ""
        }
    },
    "effects": [],
    "flags": {},
    "img": "systems/pf2e/icons/features/feats/feats.jpg",
    "name": "Crystalline Cloud",
    "permission": {
        "default": 0
    },
    "type": "feat"
}
