{
    "_id": "5cYFHKQK6OZCwavI",
    "data": {
        "actionCategory": {
            "value": ""
        },
        "actionType": {
            "value": "passive"
        },
        "actions": {
            "value": ""
        },
        "description": {
            "chat": "",
            "unidentified": "",
            "value": "<p>When you're on a case, you stay watchful and resolute to avoid tricks your suspect might pull.</p>\n<p>You gain your circumstance bonus from @Compendium[pf2e.actionspf2e.Pursue a Lead]{Pursue a Lead} on saving throws (and their DCs, as normal) against the subject of a lead, and you can use @Compendium[pf2e.actionspf2e.Clue In]{Clue In} to assist an ally's saving throw against that subject.</p>"
        },
        "featType": {
            "value": "class"
        },
        "level": {
            "value": "4"
        },
        "prerequisites": {
            "value": [
                ""
            ]
        },
        "rarity": {
            "value": "common"
        },
        "rules": [],
        "source": {
            "value": ""
        },
        "traits": {
            "custom": "",
            "rarity": {
                "value": "common"
            },
            "value": [
                "investigator"
            ]
        }
    },
    "effects": [],
    "flags": {},
    "img": "systems/pf2e/icons/features/feats/feats.jpg",
    "name": "Detective's Readiness",
    "permission": {
        "default": 0
    },
    "type": "feat"
}
