{
    "_id": "0lZeJHgk4ASO0clU",
    "data": {
        "actionCategory": {
            "value": ""
        },
        "actionType": {
            "label": "Action Type",
            "type": "String",
            "value": "passive"
        },
        "actions": {
            "label": "Number of Actions",
            "type": "String",
            "value": ""
        },
        "description": {
            "chat": "",
            "label": "Description",
            "type": "String",
            "unidentified": "",
            "value": "<p>You've sworn to slay evil dragons. Add the following tenet to your code after the others: \"You must slay evil dragons you encounter as long as you have a reasonable chance of success.</p>\n<p>Your Retributive Strike gains a +4 circumstance bonus to damage against an evil dragon, or +6 if you have master proficiency with the weapon you used.</p>\n<p>@Compendium[pf2e.feat-effects.Dragonslayer Oath (Paladin)]{Dragonslayer Oath (Paladin)}</p>\n<p>Your Glimpse of Redemption's resistance against damage from an evil dragon is 7 + your level.</p>\n<p>If you use Liberating Step triggered by an evil dragon, your ally gains a +4 circumstance bonus to checks granted by your Liberating Step, and the ally can Step twice afterward.</p>\n<p>@Compendium[pf2e.feat-effects.Effect: Liberating Step (vs. Dragon)]{Effect: Liberating Step (vs. Dragon)}</p>\n<p>You don't consider evil dragons to be legitimate authorities, even in nations they rule.</p>"
        },
        "featType": {
            "label": "Feat Type",
            "type": "String",
            "value": "class"
        },
        "level": {
            "label": "Feat Level",
            "type": "String",
            "value": 2
        },
        "location": "",
        "prerequisites": [
            "tenets of good"
        ],
        "rarity": {
            "value": "common"
        },
        "rules": [],
        "source": {
            "label": "Source",
            "type": "String",
            "value": ""
        },
        "traits": {
            "custom": "",
            "label": "Traits",
            "rarity": {
                "value": "common"
            },
            "type": "String",
            "value": [
                "champion",
                "oath"
            ]
        }
    },
    "effects": [],
    "flags": {},
    "img": "systems/pf2e/icons/features/feats/feats.jpg",
    "name": "Dragonslayer Oath",
    "permission": {
        "default": 0
    },
    "type": "feat"
}
