{
    "_id": "DNZlWe2V28KoajoN",
    "data": {
        "actionCategory": {
            "value": ""
        },
        "actionType": {
            "value": "action"
        },
        "actions": {
            "value": "2"
        },
        "description": {
            "chat": "",
            "unidentified": "",
            "value": "<p>You instinctively learn how to use a sword with just a few practice swings. You change one of the swords designated in your @Compendium[pf2e.feats-srd.Tengu Weapon Familiarity]{Tengu Weapon Familiarity} to a new one that you’re wielding, provided the sword meets the specifications of Tengu Weapon Familiarity. You can Interact to draw a sword as part of this activity, designating the sword as part of drawing it; disrupting that Interact action prevents you from designating it as one of your swords. This designation lasts until your next daily preparations.</p>"
        },
        "featType": {
            "value": "ancestry"
        },
        "level": {
            "value": 13
        },
        "location": "",
        "prerequisites": [
            "Eclectic Sword Training"
        ],
        "rarity": {
            "value": "common"
        },
        "rules": [],
        "source": {
            "value": ""
        },
        "traits": {
            "custom": "",
            "rarity": {
                "value": "common"
            },
            "value": [
                "concentration",
                "tengu"
            ]
        },
        "usage": {
            "value": ""
        }
    },
    "effects": [],
    "flags": {},
    "img": "systems/pf2e/icons/features/feats/feats.jpg",
    "name": "Eclectic Sword Mastery",
    "permission": {
        "default": 0
    },
    "type": "feat"
}
