{
    "_id": "AJVx3sHm6f6i8ZQW",
    "data": {
        "actionCategory": {
            "value": ""
        },
        "actionType": {
            "value": "passive"
        },
        "actions": {
            "value": ""
        },
        "description": {
            "chat": "",
            "unidentified": "",
            "value": "<p>The magic of your efreeti ancestors flows through you. You can cast @Compendium[pf2e.spells-srd.Enlarge]{Enlarge} and @Compendium[pf2e.spells-srd.Illusory Object]{Illusory Object}&nbsp;once per day each as 2nd-level arcane innate spells.</p>"
        },
        "featType": {
            "value": "ancestry"
        },
        "level": {
            "value": 9
        },
        "location": "",
        "prerequisites": [],
        "rarity": {
            "value": "common"
        },
        "rules": [],
        "source": {
            "value": ""
        },
        "traits": {
            "custom": "",
            "rarity": {
                "value": "common"
            },
            "value": [
                "ifrit"
            ]
        },
        "usage": {
            "value": ""
        }
    },
    "effects": [],
    "flags": {},
    "img": "systems/pf2e/icons/features/feats/feats.jpg",
    "name": "Efreeti Magic",
    "permission": {
        "default": 0
    },
    "type": "feat"
}
