{
    "_id": "OKSsFlHY5UKc4dKu",
    "data": {
        "actionCategory": {
            "value": ""
        },
        "actionType": {
            "value": "action"
        },
        "actions": {
            "value": "1"
        },
        "description": {
            "chat": "",
            "unidentified": "",
            "value": "<p><strong>Frequency</strong> once per day</p>\n<hr />\n<p>You shroud your arms and held weapons in elemental magic. Choose one element. Until the end of your next turn, your Strikes deal an additional [[/r 1d6]] damage of the indicated type and have the trait corresponding to the element: electricity for air, bludgeoning for earth, fire for fire, or cold for water.</p>"
        },
        "featType": {
            "value": "ancestry"
        },
        "level": {
            "value": 1
        },
        "location": "",
        "prerequisites": [],
        "rarity": {
            "value": "common"
        },
        "rules": [],
        "source": {
            "value": ""
        },
        "traits": {
            "custom": "",
            "rarity": {
                "value": "common"
            },
            "value": [
                "arcane",
                "concentrate",
                "evocation",
                "suli"
            ]
        },
        "usage": {
            "value": ""
        }
    },
    "effects": [],
    "flags": {},
    "img": "systems/pf2e/icons/features/feats/feats.jpg",
    "name": "Elemental Assault",
    "permission": {
        "default": 0
    },
    "type": "feat"
}
