{
    "_id": "PH5b61x3iJSKP3Xi",
    "data": {
        "actionCategory": {
            "value": ""
        },
        "actionType": {
            "value": "reaction"
        },
        "actions": {
            "value": ""
        },
        "description": {
            "chat": "",
            "unidentified": "",
            "value": "<p><strong>Trigger</strong> An enemy targets you with a melee Strike.</p>\n<hr />\n<p>Surprisingly agile even in a breastplate and carrying a full rucksack, Marcos Farabellus developed this evasive maneuver during one of his many adventures.</p>\n<p>Flinging your body into a twisting somersault, you gain a +2 circumstance bonus to your AC against the triggering attack. If the attack still hits you, you can Step to an open space that's still within the triggering enemy's reach, turning the impact of the blow into momentum.</p>"
        },
        "featType": {
            "value": "class"
        },
        "level": {
            "value": 4
        },
        "location": "",
        "prerequisites": {
            "value": [
                "trained in Acrobatics and medium armor"
            ]
        },
        "rarity": {
            "value": "common"
        },
        "rules": [
            {
                "key": "PF2E.RuleElement.FlatModifier",
                "label": "Farabellus Flip (vs. triggering attack)",
                "predicate": {
                    "all": [
                        "triggering-attack"
                    ]
                },
                "selector": "ac",
                "type": "circumstance",
                "value": 2
            }
        ],
        "source": {
            "value": ""
        },
        "traits": {
            "custom": "",
            "rarity": {
                "value": "uncommon"
            },
            "value": [
                "barbarian",
                "fighter",
                "ranger"
            ]
        }
    },
    "effects": [],
    "flags": {},
    "img": "systems/pf2e/icons/features/feats/feats.jpg",
    "name": "Farabellus Flip",
    "permission": {
        "default": 0
    },
    "type": "feat"
}
