{
    "_id": "D71A2ZQfz9MVndqI",
    "data": {
        "actionCategory": {
            "value": ""
        },
        "actionType": {
            "value": "passive"
        },
        "actions": {
            "value": ""
        },
        "description": {
            "chat": "",
            "unidentified": "",
            "value": "<p>You take advantage of your foe's openings with uncanny odds.</p>\n<p>When you make an @Compendium[pf2e.classfeatures.Opportune Riposte]{Opportune Riposte}, roll twice on the attack roll and take the better result.</p>"
        },
        "featType": {
            "value": "class"
        },
        "level": {
            "value": "16"
        },
        "prerequisites": {
            "value": [
                ""
            ]
        },
        "rarity": {
            "value": "common"
        },
        "rules": [],
        "source": {
            "value": ""
        },
        "traits": {
            "custom": "",
            "rarity": {
                "value": "common"
            },
            "value": [
                "fortune",
                "swashbuckler"
            ]
        }
    },
    "effects": [],
    "flags": {},
    "img": "systems/pf2e/icons/features/feats/feats.jpg",
    "name": "Felicitous Riposte",
    "permission": {
        "default": 0
    },
    "type": "feat"
}
