{
    "_id": "X5gNhaYNx1xu6NoH",
    "data": {
        "actionCategory": {
            "value": ""
        },
        "actionType": {
            "value": "passive"
        },
        "actions": {
            "value": ""
        },
        "description": {
            "chat": "",
            "unidentified": "",
            "value": "<p>You've learned how to land daring blows when you have @Compendium[pf2e.classfeatures.Panache]{Panache}.</p>\n<p>You gain the @Compendium[pf2e.classfeatures.Precise Strike]{Precise Strike} class feature but you deal 1 addition damage on a hit and 1d6 damage on a finisher. This damage doesn't increase as you gain levels. In addition, you gain the @Compendium[pf2e.actionspf2e.Basic Finisher]{Basic Finisher} action.</p>"
        },
        "featType": {
            "value": "archetype"
        },
        "level": {
            "value": "4"
        },
        "prerequisites": {
            "value": [
                "Swashbuckler Dedication"
            ]
        },
        "rarity": {
            "value": "common"
        },
        "rules": [],
        "source": {
            "value": ""
        },
        "traits": {
            "custom": "",
            "rarity": {
                "value": "common"
            },
            "value": [
                "archetype"
            ]
        }
    },
    "effects": [],
    "flags": {},
    "img": "systems/pf2e/icons/features/feats/feats.jpg",
    "name": "Finishing Precision",
    "permission": {
        "default": 0
    },
    "type": "feat"
}
