{
    "_id": "ygPrwqiyDr1frUHw",
    "data": {
        "actionCategory": {
            "value": ""
        },
        "actionType": {
            "value": "passive"
        },
        "actions": {
            "value": ""
        },
        "description": {
            "chat": "",
            "unidentified": "",
            "value": "<p>Your divine grace empowers you to avoid hits when you otherwise could not.</p>\n<p>You can use Sacrifice Armor to reduce any type of damage from an attack or effect requiring a Reflex save. When you use Sacrifice Armor against a critical hit or a critical failure on a Reflex save that would otherwise cause you to take double damage, you take the normal amount of damage instead.</p>"
        },
        "featType": {
            "value": "class"
        },
        "level": {
            "value": "14"
        },
        "prerequisites": {
            "value": [
                "Sacrifice Armor"
            ]
        },
        "rarity": {
            "value": "common"
        },
        "rules": [],
        "source": {
            "value": ""
        },
        "traits": {
            "custom": "",
            "rarity": {
                "value": "common"
            },
            "value": [
                "champion"
            ]
        }
    },
    "effects": [],
    "flags": {},
    "img": "systems/pf2e/icons/features/feats/feats.jpg",
    "name": "Greater Interpose",
    "permission": {
        "default": 0
    },
    "type": "feat"
}
