{
    "_id": "62hpJOuvYYSa4X7u",
    "data": {
        "actionCategory": {
            "value": ""
        },
        "actionType": {
            "value": "passive"
        },
        "actions": {
            "value": ""
        },
        "description": {
            "chat": "",
            "unidentified": "",
            "value": "<div><strong>Archetype</strong> @Compendium[pf2e.archetypes.Hellknight Signifer]{Hellknight Signifer}</div>\n<div></div>\n<hr />\n<p>You have bolstered your force of will with the power of the Measure and the Chain. Upon initiation, you receive a signifer mask, often devoid of eyeholes or other decorative features. The mask doesn't obscure your vision, though it makes it impossible for others to see your eyes. While wearing your signifer's mask, you gain +1 circumstance bonus to Deception checks to Lie, Intimidation checks, and Deception DCs against Sense Motive. You gain expert proficiency in Intimidation (or in another skill in which you're trained of your choice, if you were already an expert in Intimidation) as well as in your choice of Arcana, Nature, Occultism, or Religion.</p>\n<div><strong>Special</strong> You cannot select another dedication feat until you have gained two other feats from the @Compendium[pf2e.archetypes.Hellknight Signifer]{Hellknight Signifer} or @Compendium[pf2e.archetypes.Hellknight Armiger]{Hellknight Armiger} archetypes. </div>"
        },
        "featType": {
            "value": "archetype"
        },
        "level": {
            "value": "6"
        },
        "prerequisites": {
            "value": [
                "spellcasting class feature",
                "Hellknight Armiger Dedication",
                "lawful alignment",
                "member of a Hellknight order",
                "passed the Hellknight Test"
            ]
        },
        "rarity": {
            "value": "common"
        },
        "rules": [],
        "source": {
            "value": ""
        },
        "traits": {
            "custom": "",
            "rarity": {
                "value": "uncommon"
            },
            "value": [
                "uncommon",
                "archetype",
                "dedication"
            ]
        }
    },
    "effects": [],
    "flags": {},
    "img": "systems/pf2e/icons/features/feats/feats.jpg",
    "name": "Hellknight Signifer Dedication",
    "permission": {
        "default": 0
    },
    "type": "feat"
}
