{
    "_id": "KR78kinMmAZQHeoa",
    "data": {
        "actionCategory": {
            "value": ""
        },
        "actionType": {
            "label": "Action Type",
            "type": "String",
            "value": "action"
        },
        "actions": {
            "label": "Number of Actions",
            "type": "String",
            "value": "1"
        },
        "description": {
            "chat": "",
            "label": "Description",
            "type": "String",
            "unidentified": "",
            "value": "<p>The restorative power of your healing invigorates the recipient.</p>\n<p>If the next action you use is to cast @Compendium[pf2e.spells-srd.Heal]{Heal} targeting a single living creature and the target regains Hit Points from the spell, it also gains three bonuses until the end of its next turn: a +5-foot status bonus to its Speed, a +1 status bonus to attack rolls, and a +1 status bonus to damage rolls.</p>\n<p>@Compendium[pf2e.feat-effects.Effect: Heroic Recovery]{Effect: Heroic Recovery}</p>"
        },
        "featType": {
            "label": "Feat Type",
            "type": "String",
            "value": "class"
        },
        "level": {
            "label": "Feat Level",
            "type": "String",
            "value": 10
        },
        "location": "",
        "prerequisites": [
            "healing font",
            "good alignment"
        ],
        "rarity": {
            "value": "common"
        },
        "rules": [],
        "source": {
            "label": "Source",
            "type": "String",
            "value": ""
        },
        "traits": {
            "custom": "",
            "label": "Traits",
            "rarity": {
                "value": "common"
            },
            "type": "String",
            "value": [
                "concentrate",
                "cleric",
                "metamagic"
            ]
        }
    },
    "effects": [],
    "flags": {},
    "img": "systems/pf2e/icons/features/feats/feats.jpg",
    "name": "Heroic Recovery",
    "permission": {
        "default": 0
    },
    "type": "feat"
}
