{
    "_id": "KcNXoSvULnuQjC9a",
    "data": {
        "actionCategory": {
            "value": ""
        },
        "actionType": {
            "value": "passive"
        },
        "actions": {
            "value": ""
        },
        "description": {
            "chat": "",
            "unidentified": "",
            "value": "<p>Your familiar is infused with even more magic than other familiars. You can select six familiar or master abilities each day, instead of four.</p>"
        },
        "featType": {
            "value": "archetype"
        },
        "level": {
            "value": "10"
        },
        "prerequisites": {
            "value": [
                "Enhanced Familiar"
            ]
        },
        "rarity": {
            "value": "common"
        },
        "rules": [
            {
                "key": "PF2E.RuleElement.FlatModifier",
                "selector": "familiar-abilities",
                "type": "base",
                "value": 6
            }
        ],
        "source": {
            "value": ""
        },
        "traits": {
            "custom": "",
            "rarity": {
                "value": "common"
            },
            "value": [
                "archetype"
            ]
        }
    },
    "effects": [],
    "flags": {},
    "img": "systems/pf2e/icons/features/feats/feats.jpg",
    "name": "Incredible Familiar (Familiar Master)",
    "permission": {
        "default": 0
    },
    "type": "feat"
}
