{
    "_id": "1JTEWgonWlmeCE3w",
    "data": {
        "actionCategory": {
            "value": ""
        },
        "actionType": {
            "label": "Action Type",
            "type": "String",
            "value": "passive"
        },
        "actions": {
            "label": "Number of Actions",
            "type": "String",
            "value": ""
        },
        "description": {
            "chat": "",
            "label": "Description",
            "type": "String",
            "unidentified": "",
            "value": "<p>Instead of you taking a Step at the end of your @Compendium[pf2e.actionspf2e.Liberating Step]{Liberating Step}, the triggering ally can Stride up to half their Speed.</p>\n<p>Even if you have @Compendium[pf2e.classfeatures.Exalt]{Exalt}, only the triggering ally gains this benefit.</p>"
        },
        "featType": {
            "label": "Feat Type",
            "type": "String",
            "value": "class"
        },
        "level": {
            "label": "Feat Level",
            "type": "String",
            "value": 12
        },
        "location": "",
        "prerequisites": [
            "liberator cause"
        ],
        "rarity": {
            "value": "common"
        },
        "rules": [],
        "source": {
            "label": "Source",
            "type": "String",
            "value": ""
        },
        "traits": {
            "custom": "",
            "label": "Traits",
            "rarity": {
                "value": "common"
            },
            "type": "String",
            "value": [
                "champion"
            ]
        }
    },
    "effects": [],
    "flags": {},
    "img": "systems/pf2e/icons/features/feats/feats.jpg",
    "name": "Liberating Stride",
    "permission": {
        "default": 0
    },
    "type": "feat"
}
