{
    "_id": "TmaxLWraJrvSQOkY",
    "data": {
        "actionCategory": {
            "value": ""
        },
        "actionType": {
            "value": "passive"
        },
        "actions": {
            "value": ""
        },
        "description": {
            "chat": "",
            "unidentified": "",
            "value": "<p>You conjure uncanny orbs of spiritual flame that float above or below the water’s surface. You can cast the @Compendium[pf2e.spells-srd.Produce Flame]{Produce Flame}&nbsp;cantrip as a primal innate spell at will, heightened to a spell level equal to half your level rounded up. You can cast this cantrip underwater.</p>"
        },
        "featType": {
            "value": "ancestry"
        },
        "level": {
            "value": 1
        },
        "location": "",
        "prerequisites": [],
        "rarity": {
            "value": "common"
        },
        "rules": [],
        "source": {
            "value": ""
        },
        "traits": {
            "custom": "",
            "rarity": {
                "value": "common"
            },
            "value": [
                "tengu"
            ]
        },
        "usage": {
            "value": ""
        }
    },
    "effects": [],
    "flags": {},
    "img": "systems/pf2e/icons/features/feats/feats.jpg",
    "name": "Mariner’s Fire",
    "permission": {
        "default": 0
    },
    "type": "feat"
}
