{
    "_id": "t8CAK8ylu23PUxbn",
    "data": {
        "actionCategory": {
            "value": ""
        },
        "actionType": {
            "value": "passive"
        },
        "actions": {
            "value": ""
        },
        "description": {
            "chat": "",
            "unidentified": "",
            "value": "<p>Your proficiency rank in Perception increases to master.</p>"
        },
        "featType": {
            "value": "archetype"
        },
        "level": {
            "value": "12"
        },
        "prerequisites": {
            "value": [
                "Investigator Dedication",
                "expert in Perception"
            ]
        },
        "rarity": {
            "value": "common"
        },
        "rules": [],
        "source": {
            "value": ""
        },
        "traits": {
            "custom": "",
            "rarity": {
                "value": "common"
            },
            "value": [
                "archetype"
            ]
        }
    },
    "effects": [],
    "flags": {},
    "img": "systems/pf2e/icons/features/feats/feats.jpg",
    "name": "Master Spotter (Investigator)",
    "permission": {
        "default": 0
    },
    "type": "feat"
}
