{
    "_id": "eOwjwVAbl99ZTy5D",
    "data": {
        "actionCategory": {
            "value": ""
        },
        "actionType": {
            "value": "action"
        },
        "actions": {
            "value": "3"
        },
        "description": {
            "chat": "",
            "unidentified": "",
            "value": "<p>You throw your weight into a powerful attack that leaves you vulnerable. Make a melee @Compendium[pf2e.actionspf2e.Strike]{Strike}. This counts as three attacks when calculating your multiple attack penalty. If this Strike hits, you get a critical hit. If you roll a critical hit, your attack also gains the deadly d12 trait.</p>\n<p>Whether or not you hit, you become @Compendium[pf2e.conditionitems.Stunned]{Stunned} 1 and are @Compendium[pf2e.conditionitems.Flat-Footed]{Flat-Footed} until the start of your next turn.</p>"
        },
        "featType": {
            "value": "class"
        },
        "level": {
            "value": "16"
        },
        "prerequisites": {
            "value": [
                ""
            ]
        },
        "rarity": {
            "value": "common"
        },
        "rules": [],
        "source": {
            "value": ""
        },
        "traits": {
            "custom": "",
            "rarity": {
                "value": "common"
            },
            "value": [
                "fighter"
            ]
        }
    },
    "effects": [],
    "flags": {},
    "img": "systems/pf2e/icons/features/feats/feats.jpg",
    "name": "Overwhelming Blow",
    "permission": {
        "default": 0
    },
    "type": "feat"
}
