{
    "_id": "wNr02jsG5nRF23YO",
    "data": {
        "actionCategory": {
            "value": ""
        },
        "actionType": {
            "value": "passive"
        },
        "actions": {
            "value": ""
        },
        "description": {
            "chat": "",
            "unidentified": "",
            "value": "<p>You have a keen sense for avoiding spurious lines of inquiry. When you @Compendium[pf2e.actionspf2e.Pursue a Lead]{Pursue a Lead}, the GM tells you if the lead you chose is inconsequential.</p>\n<p>For example, if you found a splatter of gray mud on the wall, thought it was suspicious, and Pursued it as a Lead, the GM would tell you if there was no greater mystery related to it.</p>\n<p>When the GM tells you a lead is inconsequential, you can decline to Pursue the Lead, keeping any leads you were already pursuing. You still can't use Pursue a Lead again for 10 minutes, as normal.</p>"
        },
        "featType": {
            "value": "class"
        },
        "level": {
            "value": "2"
        },
        "prerequisites": {
            "value": [
                ""
            ]
        },
        "rarity": {
            "value": "common"
        },
        "rules": [],
        "source": {
            "value": ""
        },
        "traits": {
            "custom": "",
            "rarity": {
                "value": "common"
            },
            "value": [
                "investigator"
            ]
        }
    },
    "effects": [],
    "flags": {},
    "img": "systems/pf2e/icons/features/feats/feats.jpg",
    "name": "Red Herring",
    "permission": {
        "default": 0
    },
    "type": "feat"
}
