{
    "_id": "DUuCOQ9FiZf7vS5b",
    "data": {
        "actionCategory": {
            "value": ""
        },
        "actionType": {
            "value": "passive"
        },
        "actions": {
            "value": ""
        },
        "description": {
            "chat": "",
            "unidentified": "",
            "value": "<p>Careful research into the art of rituals has made you better at performing them. You gain a +2 circumstance bonus to all primary and secondary checks you attempt as part of casting a ritual.</p>"
        },
        "featType": {
            "value": "class"
        },
        "level": {
            "value": 4
        },
        "location": "",
        "prerequisites": [
            "enigma muse",
            "expert in Occultism"
        ],
        "rarity": {
            "value": "common"
        },
        "rules": [
            {
                "key": "PF2E.RuleElement.FlatModifier",
                "label": "Ritual Researcher (ritual casting)",
                "predicate": {
                    "all": [
                        "ritual"
                    ],
                    "any": [
                        "primary-check",
                        "secondary-check"
                    ]
                },
                "selector": "skill-check",
                "type": "circumstance",
                "value": 2
            }
        ],
        "source": {
            "value": ""
        },
        "traits": {
            "custom": "",
            "rarity": {
                "value": "uncommon"
            },
            "value": [
                "uncommon",
                "bard"
            ]
        }
    },
    "effects": [],
    "flags": {},
    "img": "systems/pf2e/icons/features/feats/feats.jpg",
    "name": "Ritual Researcher",
    "permission": {
        "default": 0
    },
    "type": "feat"
}
