{
    "_id": "ecJms2jtd6cZ5rQK",
    "data": {
        "actionCategory": {
            "value": ""
        },
        "actionType": {
            "value": "passive"
        },
        "actions": {
            "value": ""
        },
        "description": {
            "chat": "",
            "unidentified": "",
            "value": "<p>Your elven lineage is subtle enough that you look barely different from other humans, and you've learned to use that to your advantage. You gain the trained proficiency rank in Deception (or another skill of your choice, if you were already trained in Deception). You gain a +4 circumstance bonus to Impersonate checks to pretend you aren't a half-elf. Observers are never granted circumstance bonuses to Perception checks due to you Impersonating a full-blooded human, and you never take circumstance penalties due to you Impersonating a full-blooded human.<br /><br /><strong>Special</strong> You can take this feat only at 1st level, and you can't retrain out of this feat or into this feat.</p>"
        },
        "featType": {
            "value": "ancestry"
        },
        "level": {
            "value": "1"
        },
        "prerequisites": {
            "value": [
                ""
            ]
        },
        "rarity": {
            "value": "common"
        },
        "rules": [],
        "source": {
            "value": ""
        },
        "traits": {
            "custom": "",
            "rarity": {
                "value": "common"
            },
            "value": [
                "half-elf"
            ]
        }
    },
    "effects": [],
    "flags": {},
    "img": "systems/pf2e/icons/features/feats/feats.jpg",
    "name": "Round Ears",
    "permission": {
        "default": 0
    },
    "type": "feat"
}
