{
    "_id": "AL2KD88ddEl5AetZ",
    "data": {
        "actionCategory": {
            "value": ""
        },
        "actionType": {
            "value": "passive"
        },
        "actions": {
            "value": ""
        },
        "description": {
            "chat": "",
            "unidentified": "",
            "value": "<p>You have long fangs, natural or augmented. You gain a jaws unarmed attack that deals [[/r 1d6 #piercing]] piercing damage. Your jaws are in the brawling group and have the unarmed trait.</p>"
        },
        "featType": {
            "value": "ancestry"
        },
        "level": {
            "value": 1
        },
        "location": "",
        "prerequisites": [],
        "rarity": {
            "value": "common"
        },
        "rules": [],
        "source": {
            "value": ""
        },
        "traits": {
            "custom": "",
            "rarity": {
                "value": "common"
            },
            "value": [
                "catfolk"
            ]
        },
        "usage": {
            "value": ""
        }
    },
    "effects": [],
    "flags": {},
    "img": "systems/pf2e/icons/features/feats/feats.jpg",
    "name": "Saber Teeth",
    "permission": {
        "default": 0
    },
    "type": "feat"
}
