{
    "_id": "gHBdjbEnIK8clK8u",
    "data": {
        "actionCategory": {
            "value": ""
        },
        "actionType": {
            "value": "action"
        },
        "actions": {
            "value": "1"
        },
        "description": {
            "chat": "",
            "unidentified": "",
            "value": "<p><strong>Frequency</strong> once per hour</p>\n<hr />\n<p>You call upon your deity to grant you their protective blessing. Attempt a DC 30 Religion check. If you have legendary proficiency in Religion, you can instead attempt a DC 40 Religion check to increase the temporary Hit Points you gain on a successful check to 15 (25 on a critical success).<br /><br /><strong>Critical Success</strong> You gain 10 temporary Hit Points. You lose any remaining temporary Hit Points after 1 minute.<br /><strong>Success</strong> You gain 5 temporary Hit Points. You lose any remaining temporary Hit Points after 1 minute.<br /><strong>Critical Failure</strong> Your deity withholds their blessing. You cannot attempt to call to your deity again for 1 day.</p>"
        },
        "featType": {
            "value": "skill"
        },
        "level": {
            "value": "7"
        },
        "prerequisites": {
            "value": [
                "master in Religion",
                "you follow a deity"
            ]
        },
        "rarity": {
            "value": "common"
        },
        "rules": [],
        "source": {
            "value": ""
        },
        "traits": {
            "custom": "",
            "rarity": {
                "value": "common"
            },
            "value": [
                "general",
                "skill",
                "divine"
            ]
        }
    },
    "effects": [],
    "flags": {},
    "img": "systems/pf2e/icons/features/feats/feats.jpg",
    "name": "Sacred Defense",
    "permission": {
        "default": 0
    },
    "type": "feat"
}
