{
    "_id": "T8cBEhuHWkh3MqgO",
    "data": {
        "actionCategory": {
            "value": ""
        },
        "actionType": {
            "value": "passive"
        },
        "actions": {
            "value": ""
        },
        "description": {
            "chat": "",
            "unidentified": "",
            "value": "<p>You can tell when something’s off. You can trigger Cat’s Luck after you roll initiative, in addition to its normal trigger, to reroll your Initiative and take the higher of the two results. This still counts against Cat’s Luck’s frequency, as normal.</p>"
        },
        "featType": {
            "value": "ancestry"
        },
        "level": {
            "value": 9
        },
        "location": "",
        "prerequisites": [
            "Cat's Luck"
        ],
        "rarity": {
            "value": "common"
        },
        "rules": [],
        "source": {
            "value": ""
        },
        "traits": {
            "custom": "",
            "rarity": {
                "value": "common"
            },
            "value": [
                "catfolk"
            ]
        },
        "usage": {
            "value": ""
        }
    },
    "effects": [],
    "flags": {},
    "img": "systems/pf2e/icons/features/feats/feats.jpg",
    "name": "Sense For Trouble",
    "permission": {
        "default": 0
    },
    "type": "feat"
}
