{
    "_id": "vqLt1qjdrflTmdsw",
    "data": {
        "actionCategory": {
            "value": ""
        },
        "actionType": {
            "value": "passive"
        },
        "actions": {
            "value": ""
        },
        "description": {
            "chat": "",
            "unidentified": "",
            "value": "<p>The Old Sun Gods have granted you a gift in your fight against Walkena. You gain the @Compendium[pf2e.spells-srd.Sun's Fury]{Sun's Fury} focus spell. If you don't already have one, you gain a focus pool of 1 Focus Point, which you can regain using the Refocus activity to pray to the Old Sun Gods; if you already have a focus pool, increase the number of Focus Points in your focus pool by 1. Your Bright Lion focus spells are divine spells; when you gain this feat, if you aren't already, you become trained in divine spell attacks and spell DCs, using Charisma as your spellcasting ability score.</p>"
        },
        "featType": {
            "value": "archetype"
        },
        "level": {
            "value": "6"
        },
        "prerequisites": {
            "value": [
                "Bright Lion Dedication"
            ]
        },
        "rarity": {
            "value": "common"
        },
        "rules": [],
        "source": {
            "value": ""
        },
        "traits": {
            "custom": "",
            "rarity": {
                "value": "common"
            },
            "selected": {
                "archetype": "Archetype"
            },
            "value": [
                "archetype"
            ]
        }
    },
    "effects": [],
    "flags": {},
    "img": "systems/pf2e/icons/features/feats/feats.jpg",
    "name": "Sun's Fury",
    "permission": {
        "default": 0
    },
    "type": "feat"
}
