{
    "_id": "eAlrvPVb8qt8Lruw",
    "data": {
        "actionCategory": {
            "value": ""
        },
        "actionType": {
            "value": "passive"
        },
        "actions": {
            "value": ""
        },
        "description": {
            "chat": "",
            "unidentified": "",
            "value": "<p>Choose a swashbuckler style (page 84). You gain the @Compendium[pf2e.classfeatures.Panache]{Panache} class feature, and you can gain panache in all the ways a swashbuckler of your style can.</p>\n<p>You become trained in Acrobatics or the skill associated with your style. If you were already trained in both skills, you instead become trained in a skill of your choice. You also become trained in swashbuckler class DC. You don't gain any other effects of your chosen style.</p>\n<p><strong>Special</strong> You can't select another dedication feat until you have gained two other feats from the swashbuckler archetype.</p>"
        },
        "featType": {
            "value": "archetype"
        },
        "level": {
            "value": "2"
        },
        "prerequisites": {
            "value": [
                "Charisma 14",
                "Dexterity 14"
            ]
        },
        "rarity": {
            "value": "common"
        },
        "rules": [],
        "source": {
            "value": ""
        },
        "traits": {
            "custom": "",
            "rarity": {
                "value": "common"
            },
            "value": [
                "archetype",
                "dedication",
                "multiclass"
            ]
        }
    },
    "effects": [],
    "flags": {},
    "img": "systems/pf2e/icons/features/feats/feats.jpg",
    "name": "Swashbuckler Dedication",
    "permission": {
        "default": 0
    },
    "type": "feat"
}
