{
    "_id": "0Dy8RlFqrzCVOTl4",
    "data": {
        "actionCategory": {
            "value": ""
        },
        "actionType": {
            "value": "passive"
        },
        "actions": {
            "value": ""
        },
        "description": {
            "chat": "",
            "unidentified": "",
            "value": "<p>Your reports are thorough and informative, and putting your thoughts to paper helps you retain the information. Keep track of each type of creature you successfully identify with Recall Knowledge. When attempting Recall Knowledge checks against creatures on your list in later encounters, you gain a +2 circumstance bonus, and you learn an additional fact about such creatures on a success.</p>"
        },
        "featType": {
            "value": "archetype"
        },
        "level": {
            "value": "4"
        },
        "prerequisites": {
            "value": [
                " Pathfinder Agent Dedication"
            ]
        },
        "rarity": {
            "value": "common"
        },
        "rules": [],
        "source": {
            "value": ""
        },
        "traits": {
            "custom": "",
            "rarity": {
                "value": "common"
            },
            "value": [
                "skill",
                "archetype"
            ]
        }
    },
    "effects": [],
    "flags": {},
    "img": "systems/pf2e/icons/features/feats/feats.jpg",
    "name": "Thorough Reports",
    "permission": {
        "default": 0
    },
    "type": "feat"
}
