{
    "_id": "R40U8hF0hWyRUze8",
    "data": {
        "actionCategory": {
            "value": ""
        },
        "actionType": {
            "value": "action"
        },
        "actions": {
            "value": "1"
        },
        "description": {
            "chat": "",
            "unidentified": "",
            "value": "<p>Spells you cast can transform briefly into vital essence, traveling harmlessly through living and undead creatures between you and your target, blocked only by solid objects.</p>\n<p>If the next action you use is to @Compendium[pf2e.actionspf2e.Cast a Spell]{Cast a Spell} that requires a spell attack roll, your targets don't benefit from cover provided by living or undead creatures.</p>"
        },
        "featType": {
            "value": "class"
        },
        "level": {
            "value": "10"
        },
        "prerequisites": {
            "value": [
                ""
            ]
        },
        "rarity": {
            "value": "common"
        },
        "rules": [],
        "source": {
            "value": ""
        },
        "traits": {
            "custom": "",
            "rarity": {
                "value": "common"
            },
            "value": [
                "cleric",
                "concentrate",
                "metamagic"
            ]
        }
    },
    "effects": [],
    "flags": {},
    "img": "systems/pf2e/icons/features/feats/feats.jpg",
    "name": "Through Spell",
    "permission": {
        "default": 0
    },
    "type": "feat"
}
