{
    "_id": "RHLfM9NlIlHTH85w",
    "data": {
        "actionCategory": {
            "value": ""
        },
        "actionType": {
            "value": "free"
        },
        "actions": {
            "value": ""
        },
        "description": {
            "chat": "",
            "unidentified": "",
            "value": "<p><strong>Trigger</strong> You critically hit a foe with a melee weapon @Compendium[pf2e.actionspf2e.Strike]{Strike} or a melee unarmed attack.</p>\n<hr />\n<p>With a triumphant shout, you inspire your allies. You cast a composition cantrip you know that normally takes a single action to cast.</p>"
        },
        "featType": {
            "value": "class"
        },
        "level": {
            "value": "14"
        },
        "prerequisites": {
            "value": [
                "warrior muse"
            ]
        },
        "rarity": {
            "value": "common"
        },
        "rules": [],
        "source": {
            "value": ""
        },
        "traits": {
            "custom": "",
            "rarity": {
                "value": "common"
            },
            "value": [
                "bard"
            ]
        }
    },
    "effects": [],
    "flags": {},
    "img": "systems/pf2e/icons/features/feats/feats.jpg",
    "name": "Triumphant Inspiration",
    "permission": {
        "default": 0
    },
    "type": "feat"
}
