{
    "_id": "jfsmtOx4QgXB19BL",
    "data": {
        "actionCategory": {
            "value": ""
        },
        "actionType": {
            "value": "action"
        },
        "actions": {
            "value": "1"
        },
        "description": {
            "chat": "",
            "unidentified": "",
            "value": "<p><strong>Requirements</strong> You are adjacent to an enemy.</p>\n<hr />\n<p>Attempt an Acrobatics check against the Reflex DC of an enemy adjacent to you.</p>\n<hr />\n<p><strong>Critical Success</strong> You move through the enemy's space to an <br />unoccupied space on the other side of the enemy from your <br />starting position. This movement doesn't trigger reactions. <br />You can't move farther than your Speed, and you must end <br />your movement adjacent to the enemy whose space you <br />moved through. After moving, you make a melee @Compendium[pf2e.actionspf2e.Strike]{Strike}<br />against the enemy whose space you moved through, and <br />the enemy is @Compendium[pf2e.conditionitems.Flat-Footed]{Flat-Footed} against that Strike.</p>\n<p><strong>Success</strong> As critical success, but the enemy isn't flat-footed <br />against the Strike.</p>\n<p><strong>F</strong><strong>ailure</strong> You remain in your original space but can still Strike.</p>\n<p><strong>Critical Failure</strong> No effect.</p>"
        },
        "featType": {
            "value": "archetype"
        },
        "level": {
            "value": "8"
        },
        "prerequisites": {
            "value": [
                "Acrobat Dedication"
            ]
        },
        "rarity": {
            "value": "common"
        },
        "rules": [],
        "source": {
            "value": ""
        },
        "traits": {
            "custom": "",
            "rarity": {
                "value": "common"
            },
            "value": [
                "archetype",
                "flourish",
                "move"
            ]
        }
    },
    "effects": [],
    "flags": {},
    "img": "systems/pf2e/icons/features/feats/feats.jpg",
    "name": "Tumbling Strike",
    "permission": {
        "default": 0
    },
    "type": "feat"
}
