{
    "_id": "UCen3Tq6BJlNI7rx",
    "data": {
        "actionCategory": {
            "value": ""
        },
        "actionType": {
            "value": "action"
        },
        "actions": {
            "value": "1"
        },
        "description": {
            "chat": "",
            "unidentified": "",
            "value": "<p>You tell a story spontaneously from nearly forgotten facts, delving into your memory and entertaining your audience in the process. Recall Knowledge with a skill in which you have master proficiency, then use Uzunjati Storytelling with the same skill. You gain a +1 circumstance bonus to your skill check for Uzunjati Storytelling from the added details.</p>"
        },
        "featType": {
            "value": "archetype"
        },
        "level": {
            "value": "10"
        },
        "prerequisites": {
            "value": [
                "Uzunjati Storytelling",
                "master in a Recall Knowledge skill"
            ]
        },
        "rarity": {
            "value": "common"
        },
        "rules": [],
        "source": {
            "value": ""
        },
        "traits": {
            "custom": "",
            "rarity": {
                "value": "common"
            },
            "value": [
                "archetype",
                "skill"
            ]
        }
    },
    "effects": [],
    "flags": {},
    "img": "systems/pf2e/icons/features/feats/feats.jpg",
    "name": "Uzunjati Recollection",
    "permission": {
        "default": 0
    },
    "type": "feat"
}
