{
    "_id": "kCCrjskDIbG0e74O",
    "data": {
        "actionCategory": {
            "value": ""
        },
        "actionType": {
            "value": "passive"
        },
        "actions": {
            "value": ""
        },
        "description": {
            "chat": "",
            "unidentified": "",
            "value": "<p>You can temporarily ascend to a greater form. You can cast 8th-level @Compendium[pf2e.spells-srd.Righteous Might]{Righteous Might} once per day as an occult innate spell. When you do, your form appears unremarkable, rather than clad in powerful armaments.</p>"
        },
        "featType": {
            "value": "deityboon"
        },
        "level": {
            "value": "0"
        },
        "prerequisites": {
            "value": ""
        },
        "rarity": {
            "value": "common"
        },
        "rules": [],
        "source": {
            "value": ""
        },
        "traits": {
            "custom": "",
            "rarity": {
                "value": "common"
            },
            "selected": {},
            "value": []
        }
    },
    "effects": [],
    "flags": {},
    "img": "systems/pf2e/icons/deity/Irori.png",
    "name": "Irori - Major Boon",
    "permission": {
        "default": 0
    },
    "type": "feat"
}
