{
    "_id": "2EKgNifq3ozzKYfI",
    "data": {
        "actionCategory": {
            "value": ""
        },
        "actionType": {
            "value": "passive"
        },
        "actions": {
            "value": ""
        },
        "description": {
            "chat": "",
            "unidentified": "",
            "value": "<p><strong>Minor Boon (Single Use)</strong>: Norgorber protects your secrets and lies. Once, when you roll a failure at a Deception check to tell a @Compendium[pf2e.actionspf2e.Lie]{Lie}, you get a critical success instead.</p>\n<p>Norgorber typically chooses to grant this boon to protect an extremely consequential lie.</p>"
        },
        "featType": {
            "value": "deityboon"
        },
        "level": {
            "value": "0"
        },
        "prerequisites": {
            "value": ""
        },
        "rarity": {
            "value": "common"
        },
        "rules": [],
        "source": {
            "value": ""
        },
        "traits": {
            "custom": "",
            "rarity": {
                "value": "common"
            },
            "selected": {},
            "value": []
        }
    },
    "effects": [],
    "flags": {},
    "img": "systems/pf2e/icons/deity/Norgorber.png",
    "name": "Norgorber - Minor Boon",
    "permission": {
        "default": 0
    },
    "type": "feat"
}
