{
    "_id": "ppVKJY6AYggn2Fma",
    "data": {
        "description": {
            "value": "<p>Granted by @Compendium[pf2e.spells-srd.Goodberry]{Goodberry}.</p>\n<p>You are holding one or more goodberries, which remain fresh for the duration of the spell.</p>\n<p>You can consume one or more goodberries from the same casting with an Interact action to regain 1d6+4 Hit Points per goodberry.</p>"
        },
        "duration": {
            "expiry": "turn-start",
            "sustained": false,
            "unit": "minutes",
            "value": 10
        },
        "level": {
            "value": 1
        },
        "rarity": {
            "value": "common"
        },
        "rules": [
            {
                "key": "PF2E.RuleElement.TokenEffectIcon"
            },
            {
                "key": "PF2E.RuleElement.TokenSize",
                "value": "huge"
            },
            {
                "key": "PF2E.RuleElement.Sense",
                "label": "PF2E.SensesDarkvision",
                "selector": "darkvision"
            },
            {
                "key": "PF2E.RuleElement.TempHP",
                "value": 30
            },
            {
                "key": "PF2E.RuleElement.FlatModifier",
                "selector": "speed",
                "type": "status",
                "value": 10
            }
        ],
        "source": {
            "value": ""
        },
        "start": {
            "initiative": null,
            "value": 0
        },
        "target": null,
        "traits": {
            "custom": "",
            "rarity": {
                "value": "common"
            },
            "value": []
        }
    },
    "effects": [],
    "flags": {},
    "img": "systems/pf2e/icons/spells/goodberry.jpg",
    "name": "Spell Effect: Goodberry",
    "permission": {
        "default": 0
    },
    "type": "effect"
}
