{
    "_id": "MjtPtndJx31q2N9R",
    "data": {
        "description": {
            "value": "<p>Granted by @Compendium[pf2e.spells-srd.Lay on Hands]{Lay on Hands} if you have @Compendium[pf2e.feats-srd.Amplifying Touch]{Amplifying Touch}.</p>\n<p>If the target is one of your allies, they also gain a +2 status bonus to AC, a +1 status bonus to their attack rolls and deals 1 additional good damage on all their strikes until the end of their next turn.</p>\n<p>&nbsp;</p>"
        },
        "duration": {
            "expiry": "turn-start",
            "sustained": false,
            "unit": "rounds",
            "value": 1
        },
        "level": {
            "value": 1
        },
        "rarity": {
            "value": "common"
        },
        "rules": [
            {
                "key": "PF2E.RuleElement.FlatModifier",
                "label": "Lay on Hands",
                "selector": "ac",
                "type": "status",
                "value": 2
            },
            {
                "key": "PF2E.RuleElement.TokenEffectIcon"
            },
            {
                "key": "PF2E.RuleElement.FlatModifier",
                "label": "Amplifying Touch",
                "selector": "attack",
                "type": "status",
                "value": 1
            },
            {
                "damageType": "good",
                "key": "PF2E.RuleElement.FlatModifier",
                "label": "Amplifying Touch",
                "selector": "damage",
                "value": 1
            }
        ],
        "source": {
            "value": ""
        },
        "start": {
            "initiative": null,
            "value": 0
        },
        "target": null,
        "traits": {
            "custom": "",
            "rarity": {
                "value": "common"
            },
            "value": []
        }
    },
    "effects": [],
    "flags": {},
    "img": "systems/pf2e/icons/spells/lay-on-hands.jpg",
    "name": "Spell Effect: Amplifying Touch",
    "permission": {
        "default": 0
    },
    "type": "effect"
}
