{
    "_id": "Qejo7FUWQtPTpgWH",
    "data": {
        "actionCategory": {
            "value": ""
        },
        "actionType": {
            "value": "passive"
        },
        "actions": {
            "value": ""
        },
        "description": {
            "value": "<p>You gain the first benefit of your doctrine:</p>\n<ul>\n<li>@Compendium[pf2e.classfeatures.First Doctrine (Cloistered Cleric)]{Cloistered Cleric}</li>\n<li>@Compendium[pf2e.classfeatures.First Doctrine (Warpriest)]{Warpriest}</li>\n</ul>"
        },
        "featType": {
            "value": "classfeature"
        },
        "level": {
            "value": 1
        },
        "location": "",
        "prerequisites": [],
        "rarity": {
            "value": "common"
        },
        "rules": [],
        "source": {
            "value": ""
        },
        "traits": {
            "custom": "",
            "rarity": {
                "value": "common"
            },
            "value": [
                "cleric"
            ]
        }
    },
    "effects": [],
    "flags": {},
    "img": "systems/pf2e/icons/default-icons/feat.svg",
    "name": "First Doctrine",
    "permission": {
        "default": 0
    },
    "type": "feat"
}
