{
    "_id": "6fb15XuSV4TNuVAT",
    "data": {
        "description": {
            "chat": "",
            "unidentified": "",
            "value": "<p>Spiteful curses punish your foes. The first creature that deals damage to you before the end of your next turn takes 2 mental damage per spell level and must attempt a basic Will save.</p>"
        },
        "duration": {
            "expiry": "turn-end",
            "sustained": false,
            "unit": "rounds",
            "value": 1
        },
        "level": {
            "value": 1
        },
        "rarity": {
            "value": "common"
        },
        "rules": [
            {
                "key": "PF2E.RuleElement.TokenEffectIcon"
            }
        ],
        "source": {
            "value": ""
        },
        "start": {
            "initiative": null,
            "value": 0
        },
        "traits": {
            "custom": "",
            "rarity": {
                "value": "common"
            },
            "value": []
        }
    },
    "effects": [],
    "flags": {},
    "img": "systems/pf2e/icons/features/classes/hag.jpg",
    "name": "Effect: Hag Blood Magic",
    "permission": {
        "default": 0
    },
    "type": "effect"
}
