{
    "_id": "IT1aaqDBAISlHDUV",
    "data": {
        "ability": {
            "value": ""
        },
        "area": {
            "value": ""
        },
        "areasize": {
            "value": ""
        },
        "components": {
            "value": "Somatic, Verbal"
        },
        "cost": {
            "value": ""
        },
        "damage": {
            "applyMod": false,
            "value": ""
        },
        "damageType": {
            "value": ""
        },
        "description": {
            "chat": "",
            "unidentified": "",
            "value": "<p>You mark the holy symbol of Achaekek in a visible location on the target's body.</p>\n<hr />\n<p><strong>Critical Success</strong> The target is unaffected.</p>\n<p><strong>Success</strong> The target is marked by Achaekek's symbol. For 1 minute, the first time per round that the target gains persistent bleed damage, they immediately take that amount of slashing damage as the mantis claws grow off the symbol and rake them.</p>\n<p><strong>Failure</strong> As success, but the curse has an unlimited duration.</p>\n<p><strong>Critical Failure</strong> As failure, but the DC on the target's flat check to remove persistent bleed damage increases to 20 (15 with particularly effective assistance).</p>"
        },
        "duration": {
            "value": ""
        },
        "hasCounteractCheck": {
            "value": false
        },
        "level": {
            "value": 4
        },
        "location": {
            "value": "jmHS1JFMlQxpUHus"
        },
        "materials": {
            "value": ""
        },
        "prepared": {
            "value": ""
        },
        "primarycheck": {
            "value": ""
        },
        "range": {
            "value": "30 feet"
        },
        "rarity": {
            "value": "common"
        },
        "rules": [],
        "save": {
            "basic": "",
            "value": "will"
        },
        "scaling": {
            "formula": "",
            "mode": "none"
        },
        "school": {
            "value": "abj"
        },
        "secondarycasters": {
            "value": ""
        },
        "secondarycheck": {
            "value": ""
        },
        "source": {
            "value": ""
        },
        "spellCategorie": {
            "value": "focus"
        },
        "spellCategory": {
            "value": ""
        },
        "spellType": {
            "value": "focus"
        },
        "sustained": {
            "value": false
        },
        "target": {
            "value": "1 Creature"
        },
        "time": {
            "value": "2"
        },
        "traditions": {
            "value": []
        },
        "traits": {
            "custom": "",
            "rarity": {
                "value": "rare"
            },
            "selected": {
                "curse": "Curse",
                "death": "Death",
                "necromancy": "Necromancy"
            },
            "value": [
                "curse",
                "death",
                "necromancy"
            ]
        }
    },
    "effects": [],
    "flags": {},
    "img": "systems/pf2e/icons/spells/achaekeks-clutch.jpg",
    "name": "Achaekek's Clutch",
    "permission": {
        "default": 0
    },
    "type": "spell"
}
