{
    "_id": "gISYsBFby1TiXfBt",
    "data": {
        "ability": {
            "label": "Spellcasting Ability",
            "type": "String",
            "value": ""
        },
        "area": {
            "areaType": "",
            "label": "Area",
            "type": "String",
            "value": null
        },
        "areasize": {
            "value": ""
        },
        "components": {
            "label": "Spell Components",
            "type": "String",
            "value": "somatic, verbal"
        },
        "cost": {
            "label": "Cost",
            "type": "String",
            "value": ""
        },
        "damage": {
            "applyMod": false,
            "label": "Spell Damage",
            "type": "String",
            "value": "1d6+1"
        },
        "damageType": {
            "label": "Damage Type",
            "type": "String",
            "value": "acid"
        },
        "description": {
            "chat": "",
            "label": "Description",
            "type": "String",
            "unidentified": "",
            "value": "<p>You splash a glob of acid that splatters creatures. Make a spell attack. If you hit, you deal 1d6 acid damage plus 1 splash acid damage. On a critical success, the target also takes 1 persistent acid damage.</p>\n<hr />\n<p><strong>Heightened (3rd)</strong> The initial damage increases to 1d6 + your spellcasting ability modifier, and the @Compendium[pf2e.conditionitems.Persistent Damage]{Persistent Damage} increases to 2.<br /><strong>Heightened (5th)</strong> The initial damage increases to 2d6 + your spellcasting ability modifier, the Persistent Damage increases to 3, and the splash damage increases to 2.<br /><strong>Heightened (7th)</strong> The initial damage increases to 3d6 + your spellcasting ability modifier, the Persistent Damage increases to 4, and the splash damage increases to 3.<br /><strong>Heightened (9th)</strong> The initial damage increases to 4d6 + your spellcasting ability modifier, the Persistent Damage increases to 5, and the splash damage increases to 4.</p>"
        },
        "duration": {
            "label": "Duration",
            "type": "String",
            "value": ""
        },
        "hasCounteractCheck": {
            "value": false
        },
        "level": {
            "label": "Spell Level",
            "type": "Number",
            "value": 0
        },
        "location": {
            "label": "Spellcasting Entry Location",
            "type": "String",
            "value": 147
        },
        "materials": {
            "label": "Materials",
            "type": "String",
            "value": ""
        },
        "prepared": {
            "label": "Prepared Spell",
            "type": "String",
            "value": ""
        },
        "primarycheck": {
            "value": ""
        },
        "range": {
            "label": "Range",
            "type": "String",
            "value": "30 feet"
        },
        "rarity": {
            "value": "common"
        },
        "rules": [],
        "save": {
            "basic": "",
            "label": "Saving Throw",
            "type": "String",
            "value": ""
        },
        "scaling": {
            "formula": "",
            "mode": "none"
        },
        "school": {
            "label": "Spell School",
            "type": "String",
            "value": "evo"
        },
        "secondarycasters": {
            "value": ""
        },
        "secondarycheck": {
            "value": ""
        },
        "source": {
            "label": "Source",
            "type": "String",
            "value": ""
        },
        "spellCategorie": {
            "value": "spell"
        },
        "spellCategory": {
            "value": ""
        },
        "spellType": {
            "label": "Spell Type",
            "type": "String",
            "value": "attack"
        },
        "sustained": {
            "label": "Can be Sustained",
            "type": "Boolean",
            "value": false
        },
        "target": {
            "label": "Target",
            "type": "String",
            "value": "1 creature"
        },
        "time": {
            "label": "Casting Time",
            "type": "String",
            "value": "2"
        },
        "traditions": {
            "custom": "",
            "label": "Spell Traditions",
            "type": "String",
            "value": [
                "arcane",
                "primal"
            ]
        },
        "traits": {
            "custom": "",
            "label": "Spell Traits",
            "rarity": {
                "value": "common"
            },
            "type": "String",
            "value": [
                "attack",
                "acid",
                "cantrip",
                "evocation"
            ]
        }
    },
    "effects": [],
    "flags": {},
    "img": "systems/pf2e/icons/spells/acid-splash.jpg",
    "name": "Acid Splash",
    "permission": {
        "default": 0
    },
    "type": "spell"
}
