{
    "_id": "iMmexY6ZosLS4I5R",
    "data": {
        "ability": {
            "value": ""
        },
        "area": {
            "areaType": "emanation",
            "value": 20
        },
        "areasize": {
            "value": "20-foot emanation"
        },
        "components": {
            "value": "somatic, verbal"
        },
        "cost": {
            "value": ""
        },
        "damage": {
            "applyMod": false,
            "value": ""
        },
        "damageType": {
            "value": ""
        },
        "description": {
            "chat": "",
            "unidentified": "",
            "value": "<p><span>Striking at thin air, you create hairline cracks in an unoccupied adjacent space that lead somewhere outside reality. Air rushes through the cracks, drawing Large or smaller creatures and objects of light Bulk or less toward the center. Large or smaller creatures in the area must attempt a Fortitude save at the start of their turn; creatures that move into the area must attempt the save on entering.<br /></span></p>\n<p>The cracks of the door to beyond are too thin for anything to fully slip through, but decompressive effects deal 4d6 slashing damage to any creature or object that ends its turn in the door's space. You are unaffected by your own <em>door to beyond</em>. You can Dismiss the spell.</p>\n<hr />\n<p><span><strong>Success</strong> The creature is unaffected.</span></p>\n<p><span><strong>Failure</strong> The creature is pulled 10 feet toward the door.</span></p>\n<p><span><strong>Critical Failure</strong> The creature is pulled 20 feet toward the door.</span></p>\n<hr />\n<p><strong>Heightened (+1)</strong> The damage increases by 1d6.</p>"
        },
        "duration": {
            "value": "1 minute"
        },
        "hasCounteractCheck": {
            "value": false
        },
        "level": {
            "value": 4
        },
        "location": {
            "value": ""
        },
        "materials": {
            "value": ""
        },
        "prepared": {
            "value": ""
        },
        "primarycheck": {
            "value": ""
        },
        "range": {
            "value": "5 feet"
        },
        "rarity": {
            "value": "common"
        },
        "rules": [],
        "save": {
            "basic": "",
            "value": "fortitude"
        },
        "scaling": {
            "formula": "",
            "mode": "none"
        },
        "school": {
            "value": "con"
        },
        "secondarycasters": {
            "value": ""
        },
        "secondarycheck": {
            "value": ""
        },
        "source": {
            "value": ""
        },
        "spellCategorie": {
            "value": "focus"
        },
        "spellCategory": {
            "value": ""
        },
        "spellType": {
            "value": "save"
        },
        "sustained": {
            "value": false
        },
        "target": {
            "value": ""
        },
        "time": {
            "value": "2"
        },
        "traditions": {
            "custom": "",
            "value": [
                "focus"
            ]
        },
        "traits": {
            "custom": "",
            "rarity": {
                "value": "uncommon"
            },
            "value": [
                "cleric",
                "conjuration"
            ]
        }
    },
    "effects": [],
    "flags": {},
    "img": "systems/pf2e/icons/spells/door-to-beyond.jpg",
    "name": "Door to Beyond",
    "permission": {
        "default": 0
    },
    "type": "spell"
}
