{
    "_id": "JcobNl4iE9HmMYtE",
    "data": {
        "ability": {
            "label": "Spellcasting Ability",
            "type": "String",
            "value": ""
        },
        "area": {
            "areaType": "",
            "label": "Area",
            "type": "String",
            "value": null
        },
        "areasize": {
            "value": "30-foot cone or 60-foot line originating from yo"
        },
        "components": {
            "label": "Spell Components",
            "type": "String",
            "value": "somatic, verbal"
        },
        "cost": {
            "label": "Cost",
            "type": "String",
            "value": ""
        },
        "damage": {
            "applyMod": false,
            "label": "Spell Damage",
            "type": "String",
            "value": "5d6"
        },
        "damageType": {
            "label": "Damage Type",
            "type": "String",
            "value": ""
        },
        "description": {
            "chat": "",
            "label": "Description",
            "type": "String",
            "unidentified": "",
            "value": "<p><span>You spew energy from your mouth, dealing [[/r 5d6]] damage. The area, damage type, and save depend on the dragon type in your bloodline.</span></p>\n<h2>Dragon Breath</h2>\n<table style=\"user-select: text; width: 370px; color: #191813; font-size: 13px; height: 121px;\" border=\"1\">\n<tbody style=\"box-sizing: border-box; user-select: text;\">\n<tr style=\"box-sizing: border-box; user-select: text; height: 17px;\">\n<td style=\"box-sizing: border-box; user-select: text; color: white; height: 17px; width: 126px; text-align: center; background-color: #522e2c;\"><strong style=\"box-sizing: border-box; user-select: text;\">Dragon Type</strong></td>\n<td style=\"box-sizing: border-box; user-select: text; color: white; width: 158px; text-align: center; background-color: #522e2c; height: 17px;\"><strong style=\"box-sizing: border-box; user-select: text;\">Area and damage type</strong> </td>\n<td style=\"box-sizing: border-box; user-select: text; color: white; width: 85px; text-align: center; background-color: #522e2c; height: 17px;\"><strong style=\"box-sizing: border-box; user-select: text;\">Saving Throw</strong></td>\n</tr>\n<tr style=\"box-sizing: border-box; user-select: text; height: 17px;\">\n<td style=\"box-sizing: border-box; user-select: text; height: 17px; width: 126px; text-align: center; background-color: #f6f1e1;\">Copper or Black</td>\n<td style=\"box-sizing: border-box; user-select: text; width: 158px; text-align: center; background-color: #f6f1e1; height: 17px;\"><span>60-foot line of acid</span></td>\n<td style=\"box-sizing: border-box; user-select: text; width: 85px; text-align: center; background-color: #f6f1e1; height: 17px;\">Reflex</td>\n</tr>\n<tr style=\"box-sizing: border-box; user-select: text; height: 17px;\">\n<td style=\"box-sizing: border-box; user-select: text; height: 17px; width: 126px; text-align: center; background-color: #eee5c8;\">Blue or Bronze</td>\n<td style=\"box-sizing: border-box; user-select: text; width: 158px; text-align: center; background-color: #eee5c8; height: 17px;\">60-foot line of electricity<span></span></td>\n<td style=\"box-sizing: border-box; user-select: text; width: 85px; text-align: center; background-color: #eee5c8; height: 17px;\">Reflex</td>\n</tr>\n<tr style=\"box-sizing: border-box; user-select: text; height: 17px;\">\n<td style=\"box-sizing: border-box; user-select: text; height: 17px; width: 126px; text-align: center; background-color: #f6f1e1;\">Brass</td>\n<td style=\"box-sizing: border-box; user-select: text; width: 158px; text-align: center; background-color: #f6f1e1; height: 17px;\"><span>60-foot line of fire</span></td>\n<td style=\"box-sizing: border-box; user-select: text; width: 85px; text-align: center; background-color: #f6f1e1; height: 17px;\">Reflex</td>\n</tr>\n<tr style=\"box-sizing: border-box; user-select: text; height: 19px;\">\n<td style=\"box-sizing: border-box; user-select: text; height: 19px; width: 126px; text-align: center; background-color: #eee5c8;\">Green</td>\n<td style=\"box-sizing: border-box; user-select: text; width: 158px; text-align: center; background-color: #eee5c8; height: 19px;\"><span>30-foot cone of poison</span></td>\n<td style=\"box-sizing: border-box; user-select: text; width: 85px; text-align: center; background-color: #eee5c8; height: 19px;\">Fortitude</td>\n</tr>\n<tr style=\"box-sizing: border-box; user-select: text; height: 17px;\">\n<td style=\"box-sizing: border-box; user-select: text; height: 17px; width: 126px; text-align: center; background-color: #f6f1e1;\">Gold or Red</td>\n<td style=\"box-sizing: border-box; user-select: text; width: 158px; text-align: center; background-color: #f6f1e1; height: 17px;\"><span>30-foot cone of fire</span></td>\n<td style=\"box-sizing: border-box; user-select: text; width: 85px; text-align: center; background-color: #f6f1e1; height: 17px;\">Reflex</td>\n</tr>\n<tr style=\"box-sizing: border-box; user-select: text; height: 17px;\">\n<td style=\"box-sizing: border-box; user-select: text; height: 17px; width: 126px; text-align: center; background-color: #eee5c8;\">Silver or White</td>\n<td style=\"box-sizing: border-box; user-select: text; width: 158px; text-align: center; background-color: #eee5c8; height: 17px;\"><span>30-foot cone of cold</span></td>\n<td style=\"box-sizing: border-box; user-select: text; width: 85px; text-align: center; background-color: #eee5c8; height: 17px;\">Reflex</td>\n</tr>\n</tbody>\n</table>\n<hr />\n<p><strong>Heightened (+1)</strong> The damage increases by [[/r 2d6]].</p>"
        },
        "duration": {
            "label": "Duration",
            "type": "String",
            "value": ""
        },
        "hasCounteractCheck": {
            "value": false
        },
        "level": {
            "label": "Spell Level",
            "type": "Number",
            "value": 3
        },
        "location": {
            "label": "Spellcasting Entry Location",
            "type": "String",
            "value": ""
        },
        "materials": {
            "label": "Materials",
            "type": "String",
            "value": ""
        },
        "prepared": {
            "label": "Prepared Spell",
            "type": "String",
            "value": ""
        },
        "primarycheck": {
            "value": ""
        },
        "range": {
            "label": "Range",
            "type": "String",
            "value": ""
        },
        "rarity": {
            "value": "common"
        },
        "rules": [],
        "save": {
            "basic": "",
            "label": "Saving Throw",
            "type": "String",
            "value": ""
        },
        "scaling": {
            "formula": "2d6",
            "mode": "level1"
        },
        "school": {
            "label": "Spell School",
            "type": "String",
            "value": "evo"
        },
        "secondarycasters": {
            "value": ""
        },
        "secondarycheck": {
            "value": ""
        },
        "source": {
            "label": "Source",
            "type": "String",
            "value": ""
        },
        "spellCategorie": {
            "value": "focus"
        },
        "spellCategory": {
            "value": ""
        },
        "spellType": {
            "label": "Spell Type",
            "type": "String",
            "value": "save"
        },
        "sustained": {
            "label": "Can be Sustained",
            "type": "Boolean",
            "value": false
        },
        "target": {
            "label": "Target",
            "type": "String",
            "value": ""
        },
        "time": {
            "label": "Casting Time",
            "type": "String",
            "value": "2"
        },
        "traditions": {
            "label": "Spell Traditions",
            "type": "String",
            "value": [
                "focus"
            ]
        },
        "traits": {
            "custom": "",
            "label": "Spell Traits",
            "rarity": {
                "value": "uncommon"
            },
            "type": "String",
            "value": [
                "uncommon",
                "evocation",
                "sorcerer"
            ]
        }
    },
    "effects": [],
    "flags": {},
    "img": "systems/pf2e/icons/spells/dragon-breath.jpg",
    "name": "Dragon Breath",
    "permission": {
        "default": 0
    },
    "type": "spell"
}
