{
    "_id": "kF0rs9mCPvJGfAZE",
    "data": {
        "ability": {
            "label": "Spellcasting Ability",
            "type": "String",
            "value": ""
        },
        "area": {
            "areaType": "",
            "label": "Area",
            "type": "String",
            "value": null
        },
        "areasize": {
            "value": ""
        },
        "components": {
            "label": "Spell Components",
            "type": "String",
            "value": "verbal"
        },
        "cost": {
            "label": "Cost",
            "type": "String",
            "value": ""
        },
        "damage": {
            "applyMod": false,
            "label": "Spell Damage",
            "type": "String",
            "value": ""
        },
        "damageType": {
            "label": "Damage Type",
            "type": "String",
            "value": ""
        },
        "description": {
            "chat": "",
            "label": "Description",
            "type": "String",
            "unidentified": "",
            "value": "<p>You call upon your muse to greatly increase the benefits you provide to your allies with your @Compendium[pf2e.spells-srd.Inspire Courage]{Inspire Courage} or @Compendium[pf2e.spells-srd.Inspire Defense]{Inspire Defense} composition. If your next action is to cast inspire courage or inspire defense, attempt a Performance check. The DC is usually a very hard DC of a level equal to that of the highest-level target of your composition, but the GM can assign a different DC based on the circumstances. The effect of your inspire courage or inspire defense composition depends on the result of your check.</p>\n<hr />\n<p><strong>Critical Success</strong> The status bonus from your inspire courage or inspire defense increases to +3.</p>\n<p>@Compendium[pf2e.spell-effects.Spell Effect: Inspire Heroics (Courage, +3)]{Critical Success on Inspire Courage}, @Compendium[pf2e.spell-effects.Spell Effect: Inspire Heroics (Defense, +3)]{Critical Success on Inspire Defense}</p>\n<p><strong>Success</strong> The status bonus from inspire courage or inspire defense increases to +2.</p>\n<p>@Compendium[pf2e.spell-effects.Spell Effect: Inspire Heroics (Courage, +2)]{Success on Inspire Courage}, @Compendium[pf2e.spell-effects.Spell Effect: Inspire Heroics (Defense, +2)]{Success on Inspire Defense}</p>\n<p><strong>Failure</strong> Your inspire courage or inspire defense provides only its normal bonus of +1, but you don't spend the Focus Point for casting this spell.</p>"
        },
        "duration": {
            "label": "Duration",
            "type": "String",
            "value": ""
        },
        "hasCounteractCheck": {
            "value": false
        },
        "level": {
            "label": "Spell Level",
            "type": "Number",
            "value": 4
        },
        "location": {
            "label": "Spellcasting Entry Location",
            "type": "String",
            "value": ""
        },
        "materials": {
            "label": "Materials",
            "type": "String",
            "value": ""
        },
        "prepared": {
            "label": "Prepared Spell",
            "type": "String",
            "value": ""
        },
        "primarycheck": {
            "value": ""
        },
        "range": {
            "label": "Range",
            "type": "String",
            "value": ""
        },
        "rarity": {
            "value": "common"
        },
        "rules": [],
        "save": {
            "basic": "",
            "label": "Saving Throw",
            "type": "String",
            "value": ""
        },
        "scaling": {
            "formula": "",
            "mode": "none"
        },
        "school": {
            "label": "Spell School",
            "type": "String",
            "value": "enc"
        },
        "secondarycasters": {
            "value": ""
        },
        "secondarycheck": {
            "value": ""
        },
        "source": {
            "label": "Source",
            "type": "String",
            "value": ""
        },
        "spellCategorie": {
            "value": "focus"
        },
        "spellCategory": {
            "value": ""
        },
        "spellType": {
            "label": "Spell Type",
            "type": "String",
            "value": "utility"
        },
        "sustained": {
            "label": "Can be Sustained",
            "type": "Boolean",
            "value": false
        },
        "target": {
            "label": "Target",
            "type": "String",
            "value": ""
        },
        "time": {
            "label": "Casting Time",
            "type": "String",
            "value": "free"
        },
        "traditions": {
            "label": "Spell Traditions",
            "type": "String",
            "value": [
                "focus"
            ]
        },
        "traits": {
            "custom": "",
            "label": "Spell Traits",
            "rarity": {
                "value": "uncommon"
            },
            "type": "String",
            "value": [
                "bard",
                "enchantment"
            ]
        }
    },
    "effects": [],
    "flags": {},
    "img": "systems/pf2e/icons/spells/inspire-heroics.jpg",
    "name": "Inspire Heroics",
    "permission": {
        "default": 0
    },
    "type": "spell"
}
