{
    "_id": "ZL8NTvB22NeEWhVG",
    "data": {
        "ability": {
            "label": "Spellcasting Ability",
            "type": "String",
            "value": ""
        },
        "area": {
            "areaType": "",
            "label": "Area",
            "type": "String",
            "value": null
        },
        "areasize": {
            "value": ""
        },
        "components": {
            "label": "Spell Components",
            "type": "String",
            "value": "verbal"
        },
        "cost": {
            "label": "Cost",
            "type": "String",
            "value": ""
        },
        "damage": {
            "applyMod": false,
            "label": "Spell Damage",
            "type": "String",
            "value": "1d6"
        },
        "damageType": {
            "label": "Damage Type",
            "type": "String",
            "value": ""
        },
        "description": {
            "chat": "",
            "label": "Description",
            "type": "String",
            "unidentified": "",
            "value": "<p>You focus your ki into magical attacks. Make an unarmed Strike or Flurry of Blows (this doesn't change the limit on using only one flourish per turn). You gain a +1 status bonus to your attack rolls with the Strikes, and the Strikes deal 1d6 extra damage. This damage can be any of the following types of your choice, chosen each time you Strike: force, lawful (only if you're lawful), negative, or positive.</p>\n<hr />\n<p><strong>Heightened (+4)</strong> The extra damage increases by 1d6.</p>"
        },
        "duration": {
            "label": "Duration",
            "type": "String",
            "value": ""
        },
        "hasCounteractCheck": {
            "value": false
        },
        "level": {
            "label": "Spell Level",
            "type": "Number",
            "value": 1
        },
        "location": {
            "label": "Spellcasting Entry Location",
            "type": "String",
            "value": ""
        },
        "materials": {
            "label": "Materials",
            "type": "String",
            "value": ""
        },
        "prepared": {
            "label": "Prepared Spell",
            "type": "String",
            "value": ""
        },
        "primarycheck": {
            "value": ""
        },
        "range": {
            "label": "Range",
            "type": "String",
            "value": ""
        },
        "rarity": {
            "value": "common"
        },
        "rules": [],
        "save": {
            "basic": "",
            "label": "Saving Throw",
            "type": "String",
            "value": ""
        },
        "scaling": {
            "formula": "1d6",
            "mode": "level4"
        },
        "school": {
            "label": "Spell School",
            "type": "String",
            "value": "trs"
        },
        "secondarycasters": {
            "value": ""
        },
        "secondarycheck": {
            "value": ""
        },
        "source": {
            "label": "Source",
            "type": "String",
            "value": ""
        },
        "spellCategorie": {
            "value": "focus"
        },
        "spellCategory": {
            "value": ""
        },
        "spellType": {
            "label": "Spell Type",
            "type": "String",
            "value": "utility"
        },
        "sustained": {
            "label": "Can be Sustained",
            "type": "Boolean",
            "value": false
        },
        "target": {
            "label": "Target",
            "type": "String",
            "value": ""
        },
        "time": {
            "label": "Casting Time",
            "type": "String",
            "value": "1"
        },
        "traditions": {
            "label": "Spell Traditions",
            "type": "String",
            "value": [
                "focus"
            ]
        },
        "traits": {
            "custom": "",
            "label": "Spell Traits",
            "rarity": {
                "value": "uncommon"
            },
            "type": "String",
            "value": [
                "monk",
                "transmutation"
            ]
        }
    },
    "effects": [],
    "flags": {},
    "img": "systems/pf2e/icons/spells/ki-strike.jpg",
    "name": "Ki Strike",
    "permission": {
        "default": 0
    },
    "type": "spell"
}
