{
    "_id": "5LYi9Efs6cko4GGL",
    "data": {
        "ability": {
            "value": ""
        },
        "area": {
            "areaType": "",
            "value": null
        },
        "areasize": {
            "value": ""
        },
        "components": {
            "value": "somatic, verbal"
        },
        "cost": {
            "value": ""
        },
        "damage": {
            "applyMod": false,
            "value": ""
        },
        "damageType": {
            "value": ""
        },
        "description": {
            "chat": "",
            "unidentified": "",
            "value": "<p><span>You place a hand on an object to learn a piece of information about an emotional event that occurred involving the object within the past week, determined by the GM. If you cast <em>object reading</em> on the same item multiple times, you can either concentrate on a single event to gain additional pieces of information about that event, or you can gain a piece of information about another emotional event in the applicable time frame. </span></p>\n<hr />\n<p><strong>Heightened (2nd)</strong> You can learn about an event that occurred within the last month.</p>\n<p><strong>Heightened (4th)</strong> You can learn about an event that occurred within the last year.</p>\n<p><strong>Heightened (6th)</strong> You can learn about an event that occurred within the last decade.</p>\n<p><strong>Heightened (8th)</strong> You can learn about an event that occurred within the last century.</p>\n<p><strong>Heightened (9th)</strong> You can learn about an event that occurred within the entirety of the object's history.</p>"
        },
        "duration": {
            "value": ""
        },
        "hasCounteractCheck": {
            "value": false
        },
        "level": {
            "value": 1
        },
        "location": {
            "value": ""
        },
        "materials": {
            "value": ""
        },
        "prepared": {
            "value": ""
        },
        "primarycheck": {
            "value": ""
        },
        "range": {
            "value": ""
        },
        "rarity": {
            "value": "common"
        },
        "rules": [],
        "save": {
            "basic": "",
            "value": ""
        },
        "scaling": {
            "formula": "",
            "mode": "none"
        },
        "school": {
            "value": "div"
        },
        "secondarycasters": {
            "value": ""
        },
        "secondarycheck": {
            "value": ""
        },
        "source": {
            "value": ""
        },
        "spellCategorie": {
            "value": "spell"
        },
        "spellCategory": {
            "value": ""
        },
        "spellType": {
            "value": "utility"
        },
        "sustained": {
            "value": false
        },
        "target": {
            "value": "1 object"
        },
        "time": {
            "value": "2"
        },
        "traditions": {
            "custom": "",
            "value": [
                "occult"
            ]
        },
        "traits": {
            "custom": "",
            "rarity": {
                "value": "common"
            },
            "value": [
                "divination"
            ]
        }
    },
    "effects": [],
    "flags": {},
    "img": "systems/pf2e/icons/spells/object-reading.jpg",
    "name": "Object Reading",
    "permission": {
        "default": 0
    },
    "type": "spell"
}
