{
    "_id": "VrhCpCIQB8PFax77",
    "data": {
        "ability": {
            "value": ""
        },
        "area": {
            "value": ""
        },
        "areasize": {
            "value": ""
        },
        "components": {
            "value": "material, somatic, verbal"
        },
        "cost": {
            "value": ""
        },
        "damage": {
            "applyMod": false,
            "value": ""
        },
        "damageType": {
            "value": ""
        },
        "description": {
            "chat": "",
            "unidentified": "",
            "value": "<p><strong>Duration</strong> sustained up to 1 minute</p>\n<hr />\n<p>You create one or more glowing protective runes that revolve around you. For each additional action you use when Casting the Spell, increase the number of runes you create by one, to a maximum of three runes for 3 actions.</p>\n<p>When you next take damage from a spell, a rune is expended to prevent <a class=\"inline-roll roll\" title=\"2d6\" data-mode=\"roll\" data-flavor=\"\" data-formula=\"2d6\"><i class=\"fas fa-dice-d20\"></i> 2d6</a> of that spell's damage. If damage from the triggering spell remains, additional runes are expended until the damage is completely negated, or until all runes have been spent, whichever comes first.</p>\n<hr />\n<p><strong>Heightened (+1)</strong> Each rune prevents an additional <a class=\"inline-roll roll\" title=\"1\" data-mode=\"roll\" data-flavor=\"\" data-formula=\"1\"><i class=\"fas fa-dice-d20\"></i> 1</a> damage.</p>"
        },
        "duration": {
            "value": "sustained up to 1 minute"
        },
        "hasCounteractCheck": {
            "value": false
        },
        "level": {
            "value": 5
        },
        "location": {
            "value": "SxRPXF30ZP92OBPF"
        },
        "materials": {
            "value": ""
        },
        "prepared": {
            "value": ""
        },
        "primarycheck": {
            "value": ""
        },
        "range": {
            "value": ""
        },
        "rarity": {
            "value": "common"
        },
        "rules": [],
        "save": {
            "basic": "",
            "value": ""
        },
        "scaling": {
            "formula": "",
            "mode": "none"
        },
        "school": {
            "value": "abj"
        },
        "secondarycasters": {
            "value": ""
        },
        "secondarycheck": {
            "value": ""
        },
        "source": {
            "value": ""
        },
        "spellCategorie": {
            "value": "focus"
        },
        "spellCategory": {
            "value": ""
        },
        "spellType": {
            "value": "focus"
        },
        "sustained": {
            "value": false
        },
        "target": {
            "value": ""
        },
        "time": {
            "value": "1 to 3"
        },
        "traditions": {
            "custom": "",
            "value": [
                "focus"
            ]
        },
        "traits": {
            "custom": "",
            "rarity": {
                "value": "uncommon"
            },
            "value": [
                "abjuration"
            ]
        }
    },
    "effects": [],
    "flags": {},
    "img": "icons/svg/mystery-man.svg",
    "name": "Spellmaster's Ward",
    "permission": {
        "default": 0
    },
    "type": "spell"
}
