{
    "_id": "DYdvMZ8G2LiSLVWw",
    "data": {
        "ability": {
            "label": "Spellcasting Ability",
            "type": "String",
            "value": ""
        },
        "area": {
            "areaType": "",
            "label": "Area",
            "type": "String",
            "value": null
        },
        "areasize": {
            "value": ""
        },
        "components": {
            "label": "Spell Components",
            "type": "String",
            "value": "somatic, verbal"
        },
        "cost": {
            "label": "Cost",
            "type": "String",
            "value": ""
        },
        "damage": {
            "applyMod": false,
            "label": "Spell Damage",
            "type": "String",
            "value": "1d4"
        },
        "damageType": {
            "label": "Damage Type",
            "type": "String",
            "value": "poison"
        },
        "description": {
            "chat": "",
            "label": "Description",
            "type": "String",
            "unidentified": "",
            "value": "<p>You magically duplicate a spider's venomous sting. You deal 1d4 piercing damage to the touched creature and afflict it with spider venom. The target must attempt a Fortitude save.</p>\n<hr />\n<p><strong>Spider Venom</strong> (poison) <strong>Level 1;</strong></p>\n<p><strong>Maximum Duration</strong> 4 rounds.</p>\n<p><strong>Stage 1</strong> 1d4 poison damage and @Compendium[pf2e.conditionitems.Enfeebled]{Enfeebled 1} (1 round);</p>\n<p><strong>Stage 2</strong> 1d4 poison damage and Enfeebled 2 (1 round).</p>\n<hr />\n<p><strong>Critical Success</strong> The target is unaffected.</p>\n<p><strong>Success</strong> The target takes 1d4 poison damage.</p>\n<p><strong>Failure</strong> The target is afflicted with spider venom at stage 1.</p>\n<p><strong>Critical Failure</strong> The target is afflicted with spider venom at stage 2.</p>"
        },
        "duration": {
            "label": "Duration",
            "type": "String",
            "value": ""
        },
        "hasCounteractCheck": {
            "value": false
        },
        "level": {
            "label": "Spell Level",
            "type": "Number",
            "value": 1
        },
        "location": {
            "label": "Spellcasting Entry Location",
            "type": "String",
            "value": ""
        },
        "materials": {
            "label": "Materials",
            "type": "String",
            "value": ""
        },
        "prepared": {
            "label": "Prepared Spell",
            "type": "String",
            "value": ""
        },
        "primarycheck": {
            "value": ""
        },
        "range": {
            "label": "Range",
            "type": "String",
            "value": "touch"
        },
        "rarity": {
            "value": "common"
        },
        "rules": [],
        "save": {
            "basic": "",
            "label": "Saving Throw",
            "type": "String",
            "value": "fortitude"
        },
        "scaling": {
            "formula": "",
            "mode": "none"
        },
        "school": {
            "label": "Spell School",
            "type": "String",
            "value": "nec"
        },
        "secondarycasters": {
            "value": ""
        },
        "secondarycheck": {
            "value": ""
        },
        "source": {
            "label": "Source",
            "type": "String",
            "value": ""
        },
        "spellCategorie": {
            "value": "spell"
        },
        "spellCategory": {
            "value": ""
        },
        "spellType": {
            "label": "Spell Type",
            "type": "String",
            "value": "save"
        },
        "sustained": {
            "label": "Can be Sustained",
            "type": "Boolean",
            "value": false
        },
        "target": {
            "label": "Target",
            "type": "String",
            "value": "1 creature"
        },
        "time": {
            "label": "Casting Time",
            "type": "String",
            "value": "2"
        },
        "traditions": {
            "label": "Spell Traditions",
            "type": "String",
            "value": [
                "arcane",
                "primal"
            ]
        },
        "traits": {
            "custom": "",
            "label": "Spell Traits",
            "rarity": {
                "value": "common"
            },
            "type": "String",
            "value": [
                "necromancy",
                "poison"
            ]
        }
    },
    "effects": [],
    "flags": {},
    "img": "systems/pf2e/icons/spells/spider-sting.jpg",
    "name": "Spider Sting",
    "permission": {
        "default": 0
    },
    "type": "spell"
}
