{
    "_id": "ZLLY6ThJXCCrO0rL",
    "data": {
        "ability": {
            "value": ""
        },
        "area": {
            "value": ""
        },
        "areasize": {
            "value": ""
        },
        "components": {
            "value": "material, somatic"
        },
        "cost": {
            "value": ""
        },
        "damage": {
            "applyMod": false,
            "value": ""
        },
        "damageType": {
            "value": ""
        },
        "description": {
            "chat": "",
            "unidentified": "",
            "value": "<p>You craft a 20-foot-tall wall of living flesh in a straight line up to 30 feet long. The wall is 3 feet thick, and each 5-foot-long section has AC 10 and 75 HP. If you wish, the wall can be of a smaller length or height. You must create the wall in an unbroken open space so its edges don't pass through any creatures or objects, or the spell is lost. The wall can't be @Compendium[pf2e.actionspf2e.Repair]{Repaired} but can be healed by positive energy and healing spells and abilities. When you @Compendium[pf2e.actionspf2e.Cast a Spell]{Cast the Spell}, choose one of the following features for your wall.</p>\n<hr />\n<p><strong>• Mouths</strong> The wall has countless toothy mouths along its surface. The mouths Strike any creature that ends its turn within 5 feet of the wall, using your spell attack roll for these Strikes and dealing piercing damage equal to [[/r 1d6]] + your spellcasting ability modifier. The mouths are capable of consuming potions; since the wall is alive, it can recover Hit Points from a @Compendium[pf2e.equipment-srd.Healing Potion (Minor)]{Healing Potion}, but it can't benefit from any effect that would give it the ability to move. Otherwise, the GM determines which potions can affect the wall.</p>\n<p><strong>• Eyes</strong> The wall sprouts hundreds of unblinking eyes. You can see through these eyes, gaining a +2 circumstance bonus to visual Perception checks within the wall's line of sight. You can also use the eyes for determining line of sight for ranged attacks and spells, but you don't have line of effect through the wall.</p>\n<p><strong>• Arms</strong> The wall is a mass of grasping arms. Any creature that ends its turn within 5 feet of the wall must attempt a Reflex save.</p>\n<hr />\n<p><strong>Success</strong> The creature is unaffected.</p>\n<p><strong>Failure</strong> The creature is @Compendium[pf2e.conditionitems.Grabbed]{Grabbed} by the wall for 1 round or until it @Compendium[pf2e.actionspf2e.Escape]{Escapes} against your spell DC, whichever comes first.</p>\n<p><strong>Critical Failure</strong> The creature is @Compendium[pf2e.conditionitems.Restrained]{Restrained} by the wall for 1 round or until it Escapes against your spell DC, whichever comes first.</p>"
        },
        "duration": {
            "value": "10 minutes"
        },
        "hasCounteractCheck": {
            "value": false
        },
        "level": {
            "value": 5
        },
        "location": {
            "value": ""
        },
        "materials": {
            "value": ""
        },
        "prepared": {
            "value": false
        },
        "primarycheck": {
            "value": ""
        },
        "range": {
            "value": "20 feet"
        },
        "rarity": {
            "value": "common"
        },
        "rules": [],
        "save": {
            "basic": "",
            "value": ""
        },
        "scaling": {
            "formula": "",
            "mode": "none"
        },
        "school": {
            "value": "nec"
        },
        "secondarycasters": {
            "value": ""
        },
        "secondarycheck": {
            "value": ""
        },
        "source": {
            "value": ""
        },
        "spellCategorie": {
            "value": "spell"
        },
        "spellCategory": {
            "value": ""
        },
        "spellType": {
            "value": "attack"
        },
        "sustained": {
            "value": false
        },
        "target": {
            "value": ""
        },
        "time": {
            "value": "2"
        },
        "traditions": {
            "value": [
                "divine",
                "occult",
                "primal"
            ]
        },
        "traits": {
            "custom": "",
            "rarity": {
                "value": "common"
            },
            "value": [
                "necromancy"
            ]
        }
    },
    "effects": [],
    "flags": {},
    "img": "systems/pf2e/icons/spells/wall-of-flesh.jpg",
    "name": "Wall Of Flesh",
    "permission": {
        "default": 0
    },
    "type": "spell"
}
