{
    "_id": "JhQqV8t4BPk2Ixg8",
    "data": {
        "attributes": {
            "ac": {
                "value": 16
            },
            "hardness": 5,
            "hasHealth": true,
            "hp": {
                "details": "",
                "max": 25,
                "temp": 0,
                "tempmax": 0,
                "value": 25
            },
            "stealth": {
                "details": "",
                "value": -1
            }
        },
        "creatureType": "",
        "customModifiers": {},
        "details": {
            "description": "<p><span class=\"fontstyle0\">This dangerously unsteady pile of miscellaneous goods stands 7 feet high and 10 feet wide</span> </p>",
            "disable": "<p>DC 15 Thievery to carefully excavate a path through the wall without upsetting its balance</p>\n<p>DC 17 Athletics to hold up any unstable portions </p>",
            "isComplex": false,
            "level": 2,
            "reset": "",
            "routine": ""
        },
        "flavourText": "",
        "nethysUrl": "",
        "recallKnowledgeText": "",
        "saves": {
            "fortitude": {
                "rank": 0,
                "saveDetail": "",
                "value": 10
            },
            "reflex": {
                "rank": 0,
                "saveDetail": "",
                "value": 2
            },
            "will": {
                "rank": 0,
                "saveDetail": "",
                "value": null
            }
        },
        "schema": {
            "version": {
                "value": ""
            }
        },
        "sidebarText": "",
        "source": {
            "value": ""
        },
        "statusEffects": [],
        "traits": {
            "ci": [],
            "di": {
                "custom": "",
                "selected": {},
                "value": [
                    "critical-hits",
                    "object-immunities",
                    "precision"
                ]
            },
            "dr": [],
            "dv": [],
            "traits": {
                "custom": "",
                "value": [
                    "environmental"
                ]
            }
        }
    },
    "effects": [],
    "flags": {},
    "img": "systems/pf2e/icons/default-icons/hazard.svg",
    "items": [
        {
            "_id": "VtHcDRIcr6uZeQFk",
            "data": {
                "actionCategory": {
                    "value": ""
                },
                "actionType": {
                    "value": "reaction"
                },
                "actions": {
                    "value": ""
                },
                "description": {
                    "value": "<p><strong>Trigger</strong> A creature attempts to climb or remove an object from the wall or the wall suffers a forceful impact;</p>\n<p><strong>Effect</strong> The wall collapses, dealing 2d8 bludgeoning damage to creatures on it or within 10 feet of it. A creature that succeeds at a DC 18 Reflex save takes half damage and rolls out of the way in a random direction. On a critical success, they take no damage and can choose the direction.</p>"
                },
                "rarity": {
                    "value": "common"
                },
                "requirements": {
                    "value": ""
                },
                "rules": [],
                "slug": null,
                "source": {
                    "value": ""
                },
                "traits": {
                    "custom": "",
                    "rarity": {
                        "value": "common"
                    },
                    "value": []
                },
                "trigger": {
                    "value": ""
                },
                "weapon": {
                    "value": ""
                }
            },
            "effects": [],
            "flags": {},
            "img": "systems/pf2e/icons/actions/Reaction.png",
            "name": "Collapse",
            "sort": 200000,
            "type": "action"
        }
    ],
    "name": "Precarious Pile",
    "permission": {
        "default": 0
    },
    "token": {
        "actorId": "JhQqV8t4BPk2Ixg8",
        "actorLink": false,
        "bar1": {
            "attribute": "attributes.hp"
        },
        "bar2": {},
        "brightLight": 0,
        "brightSight": 0,
        "dimLight": 0,
        "dimSight": 0,
        "displayBars": 20,
        "displayName": 20,
        "disposition": 0,
        "flags": {},
        "height": 1,
        "img": "systems/pf2e/icons/default-icons/hazard.svg",
        "lightAlpha": 1,
        "lightAngle": 360,
        "lightAnimation": {
            "intensity": 5,
            "speed": 5
        },
        "lockRotation": false,
        "name": "Precarious Pile",
        "randomImg": false,
        "rotation": 0,
        "scale": 1,
        "sightAngle": 360,
        "tint": null,
        "vision": false,
        "width": 1
    },
    "type": "hazard"
}
