{
    "_id": "j0R1SyJP8k4G2Hkn",
    "data": {
        "actionCategory": {
            "value": ""
        },
        "actionType": {
            "value": "passive"
        },
        "actions": {
            "value": ""
        },
        "description": {
            "value": "<p>Your ancestors originated from a land where food was scarce and threats were many. You are trained in Survival. You gain the Forager skill feat as a bonus feat. Your thoroughness when gathering food provides you a +1 circumstance bonus to Survival checks to Subsist.</p>"
        },
        "featType": {
            "value": "ancestryfeature"
        },
        "level": {
            "value": 1
        },
        "location": "",
        "prerequisites": [],
        "rarity": {
            "value": "common"
        },
        "rules": [],
        "source": {
            "value": ""
        },
        "traits": {
            "custom": "",
            "rarity": {
                "value": "common"
            },
            "value": [
                "heritage",
                "strix"
            ]
        }
    },
    "effects": [],
    "flags": {},
    "img": "systems/pf2e/icons/default-icons/feat.svg",
    "name": "Scavenger Strix",
    "permission": {
        "default": 0
    },
    "type": "feat"
}
