{
    "_id": "VRyX00OuPGsJSurM",
    "data": {
        "actionCategory": {
            "value": ""
        },
        "actionType": {
            "value": "passive"
        },
        "actions": {
            "value": ""
        },
        "description": {
            "chat": "",
            "unidentified": "",
            "value": "<p>A trace of draconic magic flows through your veins. Choose one cantrip from the arcane spell list (Core Rulebook 307). You can Cast this Spell as an arcane innate spell at will. A cantrip is heightened to a spell level equal to half your level rounded up. You gain the trained proficiency rank in arcane spell attack rolls and spell DCs, and your key spellcasting ability is Charisma.</p>"
        },
        "featType": {
            "value": "ancestryfeature"
        },
        "level": {
            "value": 1
        },
        "prerequisites": [],
        "rarity": {
            "value": "common"
        },
        "rules": [],
        "source": {
            "value": ""
        },
        "traits": {
            "custom": "",
            "rarity": {
                "value": "common"
            },
            "value": [
                "heritage",
                "kobold"
            ]
        }
    },
    "effects": [],
    "flags": {},
    "img": "systems/pf2e/icons/features/ancestry/spellscale-kobold.jpg",
    "name": "Spellscale Kobold",
    "permission": {
        "default": 0
    },
    "type": "feat"
}
