{
    "_id": "rFgWvC1UADsavY5J",
    "data": {
        "actionCategory": {
            "value": ""
        },
        "actionType": {
            "value": "passive"
        },
        "actions": {
            "value": ""
        },
        "description": {
            "chat": "",
            "unidentified": "",
            "value": "<p><strong>[Generic]</strong></p>\n<p><strong>Prerequisites:</strong> Tier 1 with the Vigilant Seal</p>\n<p><strong>Cost</strong>: 2 Fame</p>\n<p><strong>Effect</strong>: No matter whether you're a shining beacon of good or a jaded pragmatist with a mission, you must be prepared to shield yourself and your allies against unholy energy. While this boon is slotted, you and any adjacent allies gain resistance to evil damage equal to your Reputation Tier with the Vigilant Seal faction.</p>"
        },
        "featType": {
            "value": "pfsboon"
        },
        "level": {
            "value": "0"
        },
        "prerequisites": {
            "value": ""
        },
        "rarity": {
            "value": "common"
        },
        "rules": [],
        "source": {
            "value": ""
        },
        "traits": {
            "custom": "",
            "rarity": {
                "value": "common"
            },
            "selected": {},
            "value": []
        }
    },
    "effects": [],
    "flags": {},
    "img": "systems/pf2e/icons/default-icons/mystery-man.png",
    "name": "Resist Corruption",
    "permission": {
        "default": 0
    },
    "type": "feat"
}
