{
    "_id": "MuhZZkLR8y9eEndN",
    "data": {
        "actionCategory": {
            "value": ""
        },
        "actionType": {
            "value": "passive"
        },
        "actions": {
            "value": ""
        },
        "description": {
            "chat": "",
            "unidentified": "",
            "value": "<p><strong>[Slotless][Generic]</strong></p>\n<p><strong>Effect</strong>: By saving the Sewer Dragons, you opened the door for some of the surviving members</p>\n<p>to enroll in the Pathfinder Society. Any kobold character you create may take the following background.</p>\n<p>@Compendium[pf2e.backgrounds.Sewer Dragon]{Sewer Dragon}</p>"
        },
        "featType": {
            "value": "pfsboon"
        },
        "level": {
            "value": "0"
        },
        "prerequisites": {
            "value": ""
        },
        "rarity": {
            "value": "common"
        },
        "rules": [],
        "source": {
            "value": ""
        },
        "traits": {
            "custom": "",
            "rarity": {
                "value": "common"
            },
            "selected": {},
            "value": []
        }
    },
    "effects": [],
    "flags": {},
    "img": "systems/pf2e/icons/default-icons/mystery-man.png",
    "name": "S1-Q10 - Sewer Dragon Recruit",
    "permission": {
        "default": 0
    },
    "type": "feat"
}
